<?xml version="1.0" encoding="utf-8"?>
<!-- Generator: Adobe Illustrator 25.3.0, SVG Export Plug-In . SVG Version: 6.00 Build 0)  -->
<svg version="1.1" id="Layer_1" xmlns="http://www.w3.org/2000/svg" xmlns:xlink="http://www.w3.org/1999/xlink" x="0px" y="0px"
	 viewBox="0 0 273.9 240.3" style="enable-background:new 0 0 273.9 240.3;" xml:space="preserve">
<style type="text/css">
	.st0{opacity:0.5;fill:#B8EA3D;enable-background:new    ;}
	.st1{fill:#8FC522;}
	.st2{opacity:0.5;fill:url(#SVGID_1_);enable-background:new    ;}
	.st3{opacity:0.5;fill:url(#SVGID_2_);enable-background:new    ;}
	.st4{opacity:0.5;clip-path:url(#SVGID_4_);}
	.st5{fill:#62575B;}
	.st6{fill:#B5AEA3;}
	.st7{fill:#C9C3B8;}
	.st8{fill:#EAE6DA;}
	.st9{opacity:0.7;fill:#B5AEA3;enable-background:new    ;}
	.st10{enable-background:new    ;}
	.st11{fill:url(#SVGID_5_);}
	.st12{fill:#F3F3F3;}
	.st13{fill:#CBCBCB;}
	.st14{fill:#ECECEC;}
	.st15{fill:#E5E5E5;}
	.st16{fill:#6A7F0B;}
	.st17{fill:#48484D;}
	.st18{fill:#2B2B2D;}
	.st19{fill:url(#SVGID_6_);}
	.st20{fill:#A0B22E;}
	.st21{opacity:0.6;fill:#6A7F0B;enable-background:new    ;}
	.st22{fill:#DCDCDC;}
	.st23{fill:#3F3F3F;}
	.st24{fill:#262523;}
	.st25{fill:#2D2C2B;}
	.st26{fill:url(#SVGID_8_);}
	.st27{clip-path:url(#SVGID_10_);}
	.st28{fill:url(#SVGID_11_);}
	.st29{opacity:0.5;fill:#C7C7C7;enable-background:new    ;}
	.st30{fill:url(#SVGID_13_);}
	.st31{fill:url(#SVGID_14_);}
	.st32{clip-path:url(#SVGID_16_);}
	.st33{fill:url(#SVGID_17_);}
	.st34{fill:#BFBFBF;}
	.st35{fill:#F3F8FF;}
	.st36{fill:#F7A041;}
	.st37{fill:#101616;}
	.st38{fill:#151B1C;}
	.st39{opacity:0.5;}
	.st40{fill:#D3D3D3;}
	.st41{fill:#EAEAEA;}
	.st42{opacity:0.7;fill:#334547;enable-background:new    ;}
	.st43{fill:#252F30;}
	.st44{opacity:0.4;fill:url(#SVGID_18_);enable-background:new    ;}
	.st45{fill:#595959;}
	.st46{fill:#A00000;}
	.st47{fill:#262323;}
	.st48{fill:#FCBE9F;}
	.st49{fill:#191619;}
	.st50{fill:#E58D2E;}
	.st51{fill:#211921;}
	.st52{fill:#A1B32F;}
	.st53{fill:#F3A984;}
	.st54{fill:#4F321F;}
	.st55{fill:#444444;}
	.st56{clip-path:url(#SVGID_20_);}
	.st57{fill:#CFE7B6;}
	
		.st58{fill:none;stroke:#4D0E62;stroke-width:0.5206;stroke-linecap:round;stroke-linejoin:round;stroke-miterlimit:10;stroke-dasharray:2.0824,2.0824;}
	.st59{fill:none;stroke:#4D0E62;stroke-width:0.5206;stroke-linecap:round;stroke-linejoin:round;stroke-miterlimit:10;}
	.st60{fill:none;stroke:#4D0E62;stroke-width:0.5206;stroke-linecap:round;stroke-linejoin:round;}
	.st61{fill:none;stroke:#4D0E62;stroke-width:0.5206;stroke-linecap:round;stroke-linejoin:round;stroke-dasharray:2.2186,2.2186;}
	
		.st62{fill:none;stroke:#4D0E62;stroke-width:0.5543;stroke-linecap:round;stroke-linejoin:round;stroke-miterlimit:10;stroke-dasharray:2.2171,2.2171;}
	.st63{fill:#FFFFFF;stroke:#B9B2B4;stroke-width:0.5206;stroke-miterlimit:10;}
	.st64{fill:none;stroke:#FFFFFF;stroke-width:3.1236;stroke-linecap:round;stroke-linejoin:round;stroke-miterlimit:10;}
	.st65{fill:#E0DFE0;}
	.st66{fill:#606060;}
	.st67{font-family:'Montserrat-Medium';}
	.st68{font-size:3.0074px;}
	.st69{fill:#02D102;}
	.st70{fill:#FFFFFF;}
	.st71{opacity:0.15;fill:#FF8500;enable-background:new    ;}
	.st72{opacity:0.3;fill:#FF8500;enable-background:new    ;}
	.st73{fill:#FF8500;}
	.st74{fill:#808080;}
	.st75{font-size:1.8622px;}
	.st76{font-size:1.862px;}
	.st77{font-size:1.8621px;}
	.st78{font-size:1.8623px;}
</style>
<g>
	<g>
		<ellipse class="st0" cx="137.3" cy="161.6" rx="136.3" ry="78.7"/>
		<ellipse class="st1" cx="137.3" cy="138" rx="136.3" ry="78.7"/>
	</g>
	<g>
		
			<linearGradient id="SVGID_1_" gradientUnits="userSpaceOnUse" x1="0.9389" y1="65.358" x2="273.2514" y2="65.358" gradientTransform="matrix(1 0 0 1 0 96)">
			<stop  offset="3.994447e-07" style="stop-color:#5CC938"/>
			<stop  offset="0.2117" style="stop-color:#83DC51"/>
			<stop  offset="0.4257" style="stop-color:#A3EB65"/>
			<stop  offset="0.6331" style="stop-color:#BAF673"/>
			<stop  offset="0.8286" style="stop-color:#C7FD7C"/>
			<stop  offset="1" style="stop-color:#CCFF7F"/>
		</linearGradient>
		<path class="st2" d="M233.4,105.7c-53-30.6-138.9-30.7-192.2-0.3c-53.7,30.7-53.7,81.2,0,111.9c53.3,30.4,139.1,30.3,192.2-0.3
			C286.5,186.2,286.5,136.4,233.4,105.7z"/>
		
			<linearGradient id="SVGID_2_" gradientUnits="userSpaceOnUse" x1="0.665" y1="41.7003" x2="273.2016" y2="41.7003" gradientTransform="matrix(1 0 0 1 0 96)">
			<stop  offset="3.994447e-07" style="stop-color:#5CC938"/>
			<stop  offset="0.2117" style="stop-color:#83DC51"/>
			<stop  offset="0.4257" style="stop-color:#A3EB65"/>
			<stop  offset="0.6331" style="stop-color:#BAF673"/>
			<stop  offset="0.8286" style="stop-color:#C7FD7C"/>
			<stop  offset="1" style="stop-color:#CCFF7F"/>
		</linearGradient>
		<ellipse class="st3" cx="136.9" cy="137.7" rx="136.3" ry="78.7"/>
	</g>
	<g>
		<g>
			<g>
				<defs>
					<ellipse id="SVGID_3_" cx="137.3" cy="138" rx="136.3" ry="78.7"/>
				</defs>
				<clipPath id="SVGID_4_">
					<use xlink:href="#SVGID_3_"  style="overflow:visible;"/>
				</clipPath>
				<g class="st4">
					<path class="st5" d="M97.3,128.4c2.3-0.3,6.4-0.6,8.3-3c0.9-1.1,0.8-2.4-0.1-3.5c-0.7-0.9-2.9-2.1-4-2.4
						c-4.4-1.1-7.5-1.6-12-1.4c-3.1,0.1-11.5,1.5-15.4,2.9c-2.9,1-6,1.7-7.4,4.8c-1.2,2.7-0.4,6.6,2.2,8.4
						C75.2,138.5,86.7,129.5,97.3,128.4z"/>
					<polygon class="st5" points="16.9,93.2 -2.2,120.7 38.8,120.7 43.9,123.6 48.4,123.6 58.5,93.2 					"/>
					<path class="st5" d="M131.2,72.4l-73.5,42.4c-1.4,0.8-1.4,2.9,0,3.7l62.9,36.3c6.6,3.8,13.7,6.5,21.2,7.9l28.8,5.5
						c0.6,0.1,1.3,0.3,1.9,0.5c49.7,13.6,68.9-8.1,68.9-8.1L131.2,72.4z"/>
				</g>
			</g>
		</g>
	</g>
	<g>
		<g id="_x31_4_3_">
			<g>
				<g id="Axonometric_Cube_3_">
					<polygon id="Cube_face_-_left_3_" class="st6" points="49.1,123.3 35.9,115.7 35.9,111.6 49.1,119.2 					"/>
					<polygon id="Cube_face_-_right_3_" class="st7" points="80.1,105.3 49.1,123.3 49.1,119.2 80.1,101.2 					"/>
					<polygon id="Cube_face_-_top_3_" class="st8" points="49.1,119.2 35.9,111.6 67,93.7 80.1,101.2 					"/>
					<polygon class="st9" points="48.7,117.6 66.2,100.9 67,93.7 35.9,111.6 46.4,117.6 					"/>
				</g>
			</g>
			<g class="st10">
				
					<linearGradient id="SVGID_5_" gradientUnits="userSpaceOnUse" x1="73.1353" y1="-61.8157" x2="52.2507" y2="-25.6426" gradientTransform="matrix(1 0 0 1 0 96)">
					<stop  offset="0.5287" style="stop-color:#6A7F0B"/>
					<stop  offset="0.5884" style="stop-color:#7B8F16"/>
					<stop  offset="0.6837" style="stop-color:#90A324"/>
					<stop  offset="0.7772" style="stop-color:#9DAF2C"/>
					<stop  offset="0.8659" style="stop-color:#A1B32F"/>
				</linearGradient>
				<path class="st11" d="M73.6,36c0-1-0.4-1.7-0.9-2.1l-10.4-6.1c0.6,0.3,0.9,1.1,0.9,2.1l0.1,20.7c0,2-1.4,4.5-3.2,5.6l-14.7,8.6
					c-0.9,0.5-1.7,0.6-2.3,0.2l10.4,6.1c0.6,0.3,1.4,0.3,2.3-0.2l14.7-8.6c1.8-1,3.2-3.5,3.2-5.6L73.6,36z"/>
				<g>
					<g class="st10">
						<path class="st12" d="M68.2,7.8L57.8,1.7c2.5-1.4,4.7-1.6,6.4-0.6l10.4,6.1C73,6.2,70.7,6.3,68.2,7.8L68.2,7.8z"/>
					</g>
				</g>
				<g>
					<polygon class="st13" points="48.7,117.7 38.3,111.6 38.3,23.2 48.7,29.3 					"/>
				</g>
				<g>
					<polygon class="st14" points="57.6,13.9 47.2,7.9 57.8,1.7 68.2,7.8 					"/>
				</g>
				<g>
					<path class="st15" d="M68.2,7.8c4.9-2.9,9-0.6,9,5.1v88.4l-28.5,16.4V29.3c0-5.7,4-12.6,8.9-15.4L68.2,7.8z M73.7,56.6
						l-0.1-20.7c0-2-1.5-2.9-3.2-1.9l-14.7,8.6c-1.8,1-3.2,3.5-3.2,5.6l0.1,20.7c0,2,1.5,2.9,3.2,1.8l14.7-8.6
						C72.3,61.2,73.7,58.7,73.7,56.6L73.7,56.6z"/>
				</g>
				<g>
					<g class="st10">
						<path class="st12" d="M48.7,29.3l-10.4-6.1c0-5.7,4-12.6,8.9-15.4l10.4,6.1C52.7,16.8,48.7,23.6,48.7,29.3L48.7,29.3z"/>
					</g>
				</g>
			</g>
			<g>
				<path class="st16" d="M41.8,59c-1.2-1.4-1.9-3.1-1.9-4.4c0-2,1.7-2.7,3.7-1.6c0.7,0.4,1.3,0.9,1.9,1.6c1.2,1.4,1.9,3.1,1.9,4.4
					c0,2-1.7,2.7-3.7,1.6C43,60.2,42.3,59.7,41.8,59L41.8,59z M45.2,55c-0.5-0.6-1-1-1.6-1.4c-1.8-1-3.3-0.4-3.3,1.4
					c0,1.1,0.6,2.5,1.6,3.7c0.5,0.6,1,1,1.6,1.4c1.8,1,3.3,0.4,3.3-1.4C46.8,57.5,46.2,56.1,45.2,55z"/>
				<path class="st16" d="M43.4,59.5c0-0.1-0.1-0.1-0.1-0.2l0.5-2.4h-1.2c0,0,0,0-0.1,0l0,0c0-0.1-0.1-0.1-0.1-0.2l0.5-2.9l0.9,0.4
					l0,0c0,0,0,0,0.1,0.1c0,0.1,0,0.1,0,0.1l-0.7,1.8h1.1c0,0,0,0,0.1,0c0,0,0,0,0,0.1s0.1,0.1,0,0.2L43.4,59.5
					C43.5,59.6,43.5,59.6,43.4,59.5C43.4,59.6,43.4,59.6,43.4,59.5z"/>
			</g>
			<g class="st10">
				<path class="st17" d="M44.1,31.3c-0.1-0.3-0.3-0.6-0.5-0.8c-0.2-0.2-0.4-0.4-0.6-0.5c-0.4-0.2-0.7-0.2-0.9-0.1l-1.2,0.7
					c0.2-0.1,0.6-0.1,0.9,0.1c0.2,0.1,0.4,0.3,0.6,0.5c0.2,0.2,0.4,0.5,0.5,0.8s0.2,0.7,0.2,1c0,0.4-0.1,0.7-0.4,0.8l1.2-0.7
					c0.2-0.1,0.4-0.4,0.4-0.8C44.3,32,44.2,31.6,44.1,31.3z"/>
				<path class="st18" d="M41.8,30.7c-0.7-0.4-1.3-0.1-1.3,0.8c0,0.8,0.6,1.8,1.3,2.3c0.7,0.4,1.3,0.1,1.3-0.8
					C43.1,32.2,42.5,31.1,41.8,30.7z"/>
			</g>
			<g class="st10">
				<path class="st17" d="M44.1,40.1c-0.1-0.3-0.3-0.6-0.5-0.8c-0.2-0.2-0.4-0.4-0.6-0.5c-0.4-0.2-0.7-0.2-0.9-0.1l-1.2,0.8
					c0.2-0.1,0.6-0.1,0.9,0.1c0.2,0.1,0.4,0.3,0.6,0.5c0.2,0.2,0.4,0.5,0.5,0.8c0.1,0.3,0.2,0.7,0.2,1c0,0.4-0.1,0.7-0.4,0.8
					l1.2-0.7c0.2-0.1,0.4-0.4,0.4-0.8C44.3,40.8,44.2,40.5,44.1,40.1z"/>
				<path class="st18" d="M41.8,39.6c-0.7-0.4-1.3-0.1-1.3,0.8c0,0.8,0.6,1.8,1.3,2.3c0.7,0.4,1.3,0.1,1.3-0.8S42.5,40,41.8,39.6z"
					/>
			</g>
			<g>
				
					<linearGradient id="SVGID_6_" gradientUnits="userSpaceOnUse" x1="70.3484" y1="-78.8346" x2="56.282" y2="-64.7683" gradientTransform="matrix(1 0 0 1 0 96)">
					<stop  offset="0" style="stop-color:#221E1E"/>
					<stop  offset="0.5217" style="stop-color:#332D2D"/>
					<stop  offset="0.5296" style="stop-color:#221E1E"/>
				</linearGradient>
				<path class="st19" d="M69.6,25.1l-12.2,7c-0.6,0.4-1.1,0.1-1.1-0.5v-7.1c0-0.6,0.5-1.4,1.1-1.7l12.2-7c0.6-0.4,1.1-0.1,1.1,0.5
					v7.1C70.7,24,70.2,24.8,69.6,25.1z"/>
				<polygon class="st20" points="69.1,18 57.8,24.4 57.8,30.2 69.1,23.7 				"/>
				<polygon class="st21" points="68.8,18.2 68.8,23.5 57.8,29.9 57.8,30.2 69.1,23.7 69.1,18 				"/>
			</g>
		</g>
	</g>
	<g>
		<path class="st22" d="M227.5,82.4c0.5-0.7,3.9-3.8,4.4-3.5c0.9,0.7,0.5,4.1-0.3,5.5c-0.7,1.3-4,4.7-4.1,4.3
			C227.1,87.9,226.9,83.2,227.5,82.4z"/>
		<g class="st10">
			<path class="st23" d="M119.2,88.8l-13.4,6.6c-1.9,1.1-1.3,9.9-0.2,13.5l23.8-13.6C126.5,92.8,123,90.8,119.2,88.8z"/>
			<path class="st23" d="M184.9,138.5c-2,1.2-2.3,12.7-1,15.8l10.3-6.3l23.3-21.7c0.2-3.4,18.7-15.7,20.7-16.9L184.9,138.5z"/>
			<g>
				<g class="st10">
					<path class="st24" d="M132.5,105.7c-1-2.2-2.3-4.3-3.9-6.1c-1.3-1.5-2.8-2.8-4.4-3.7c-2.8-1.6-5.3-1.8-7.1-0.7l-5.5,3.2
						l14.1,24.3l5.5-3.2c1.8-1,2.9-3.3,2.9-6.4C134.2,110.8,133.5,108.2,132.5,105.7z"/>
					<path class="st25" d="M118.8,99.2c-5.5-3.2-10-0.6-10,5.7c0,6.3,4.4,14,10,17.2c5.5,3.2,10,0.6,10-5.7
						C128.8,110,124.3,102.3,118.8,99.2z"/>
				</g>
				<g>
					<g>
						
							<linearGradient id="SVGID_8_" gradientUnits="userSpaceOnUse" x1="111.604" y1="14.6559" x2="125.8973" y2="14.6559" gradientTransform="matrix(1 0 0 1 0 96)">
							<stop  offset="0" style="stop-color:#201F1D"/>
							<stop  offset="1" style="stop-color:#12100C"/>
						</linearGradient>
						<path id="SVGID_7_" class="st26" d="M118.8,102.4c-4-2.3-7.2-0.5-7.2,4.1c0,4.6,3.2,10.1,7.2,12.4c4,2.3,7.2,0.5,7.2-4.1
							C125.9,110.2,122.7,104.7,118.8,102.4z"/>
					</g>
					<g>
						<g>
							<defs>
								<path id="SVGID_9_" d="M118.8,102.4c-4-2.3-7.2-0.5-7.2,4.1c0,4.6,3.2,10.1,7.2,12.4c4,2.3,7.2,0.5,7.2-4.1
									C125.9,110.2,122.7,104.7,118.8,102.4z"/>
							</defs>
							<clipPath id="SVGID_10_">
								<use xlink:href="#SVGID_9_"  style="overflow:visible;"/>
							</clipPath>
							<g class="st27">
								
									<radialGradient id="SVGID_11_" cx="118.1724" cy="7.341" r="17.1102" gradientTransform="matrix(1 0 0 1 0 96)" gradientUnits="userSpaceOnUse">
									<stop  offset="0" style="stop-color:#C7C7C7"/>
									<stop  offset="1" style="stop-color:#B5B5B5"/>
								</radialGradient>
								<path class="st28" d="M119.5,102.3c3.7,2.2,6.6,7.5,6.5,11.8c-0.1,4.3-3.2,5.9-6.9,3.7c-3.7-2.2-6.6-7.5-6.5-11.8
									S115.8,100.1,119.5,102.3z"/>
								<path class="st29" d="M119.5,103.5c-3.1-1.9-5.7-0.5-5.8,3.1c-0.1,3.6,2.4,8.1,5.5,10s5.7,0.5,5.8-3.1
									S122.6,105.4,119.5,103.5z M119.2,116.1c-2.9-1.7-5.2-5.9-5.1-9.2c0.1-3.3,2.5-4.6,5.4-2.9s5.2,5.9,5.1,9.2
									C124.5,116.5,122.1,117.8,119.2,116.1z"/>
							</g>
						</g>
					</g>
				</g>
			</g>
			
				<linearGradient id="SVGID_13_" gradientUnits="userSpaceOnUse" x1="159.4781" y1="35.822" x2="156.0961" y2="41.6798" gradientTransform="matrix(1 0 0 1 0 96)">
				<stop  offset="0.1327" style="stop-color:#ABABAB"/>
				<stop  offset="0.1582" style="stop-color:#C7C7C7"/>
			</linearGradient>
			<path class="st30" d="M178.5,135.5l-30.4-18l-16.6-2.1c0,0-0.2,6.6-0.7,8.1l53.3,30.8v-8.8L178.5,135.5z"/>
			<g>
				<g class="st10">
					<path class="st24" d="M210.8,150.9c-1-2.2-2.3-4.3-3.9-6.1c-1.3-1.5-2.8-2.8-4.4-3.7c-2.8-1.6-5.3-1.8-7.1-0.7l-5.5,3.2
						l14.1,24.3l5.5-3.2c1.8-1,2.9-3.3,2.9-6.4C212.5,156.1,211.9,153.4,210.8,150.9z"/>
					<path class="st25" d="M197.1,144.4c-5.5-3.2-10-0.6-10,5.7s4.4,14,10,17.2c5.5,3.2,10,0.6,10-5.7
						C207.1,155.2,202.6,147.6,197.1,144.4z"/>
				</g>
				<g>
					<g>
						
							<linearGradient id="SVGID_14_" gradientUnits="userSpaceOnUse" x1="189.9265" y1="59.8794" x2="204.2196" y2="59.8794" gradientTransform="matrix(1 0 0 1 0 96)">
							<stop  offset="0" style="stop-color:#201F1D"/>
							<stop  offset="1" style="stop-color:#12100C"/>
						</linearGradient>
						<path id="SVGID_12_" class="st31" d="M197.1,147.7c-4-2.3-7.2-0.5-7.2,4.1s3.2,10.1,7.2,12.4c4,2.3,7.2,0.5,7.2-4.1
							S201.1,150,197.1,147.7z"/>
					</g>
					<g>
						<g>
							<defs>
								<path id="SVGID_15_" d="M197.1,147.7c-4-2.3-7.2-0.5-7.2,4.1s3.2,10.1,7.2,12.4c4,2.3,7.2,0.5,7.2-4.1
									S201.1,150,197.1,147.7z"/>
							</defs>
							<clipPath id="SVGID_16_">
								<use xlink:href="#SVGID_15_"  style="overflow:visible;"/>
							</clipPath>
							<g class="st32">
								
									<radialGradient id="SVGID_17_" cx="196.5059" cy="52.5669" r="17.1102" gradientTransform="matrix(1 0 0 1 0 96)" gradientUnits="userSpaceOnUse">
									<stop  offset="0" style="stop-color:#C7C7C7"/>
									<stop  offset="1" style="stop-color:#B5B5B5"/>
								</radialGradient>
								<path class="st33" d="M197.8,147.6c3.7,2.2,6.6,7.5,6.5,11.8c-0.1,4.3-3.2,5.9-6.9,3.7c-3.7-2.2-6.6-7.5-6.5-11.8
									C191,147,194.1,145.4,197.8,147.6z"/>
								<path class="st29" d="M197.8,148.8c-3.1-1.9-5.7-0.5-5.8,3.1c-0.1,3.6,2.4,8.1,5.5,10c3.1,1.9,5.7,0.5,5.8-3.1
									C203.4,155.1,200.9,150.6,197.8,148.8z M197.5,161.3c-2.9-1.7-5.2-5.9-5.1-9.2c0.1-3.3,2.5-4.6,5.4-2.9
									c2.9,1.7,5.2,5.9,5.1,9.2C202.8,161.7,200.4,163.1,197.5,161.3z"/>
							</g>
						</g>
					</g>
				</g>
			</g>
			<path class="st34" d="M266.7,128.3c0-0.3-0.1-0.6-0.3-0.9c-0.3-0.4-0.7-0.6-0.7-0.7c-0.2-2.7-0.7-4.7-1.1-5.7
				c-0.6-1.6-1.5-3.3-2.7-5.1c-1.2-2-29.6-27.2-29.6-27.2c-0.4-0.5-18.1-18.3-23.9-21.7L158.1,38c-2.4-1.4-5.3-1.4-7.7,0l-28.5,16.4
				c-1.8,1-3.4,2.4-4.6,4.1c0,0-11.1,15-11.1,15.2c-0.2,1.8-1,7.9-1,7.9l-2.1,3.1c-0.4,0.5-0.6,1.2-0.7,1.8
				c-0.3,2.9-0.2,12.7-0.2,17c0,1.6,0.7,3.2,2,4.3c0.7,0.6,1.3,1,1.3,1c0.4-6.9,3.2-19.2,14.4-12.7c0.1,0.1,0.3,0.1,0.4,0.2
				c6,3.7,10.8,12,11.1,19l52.6,30.4c0.3-7.1,5.4-9.8,11.6-6.2c0.1,0.1,0.3,0.2,0.4,0.2c6,3.7,12.8,10.4,12.8,25.7
				c10.7,4.4,23.9,1.2,35.2-4.4c11.8-5.8,20.4-12.9,22.4-18.7c0.2-0.6,0.3-1.2,0.3-1.8C266.7,137.8,266.8,129.6,266.7,128.3z
				 M176.4,55l-2.8,1.6L158,47.6l2.8-1.6c1-0.6,2.7-0.6,3.7,0l12.1,7C177.4,53.5,177.4,54.4,176.4,55z M205.1,74.8
				c2.7-2,4.5-3.6,5.3-4.4c5.3,4.6,15.7,14.7,18,17.7L205.1,74.8z"/>
			<path class="st14" d="M232.3,88.8c-0.4-0.5-18.1-18.3-23.9-21.7L158,38c-2.4-1.4-5.3-1.4-7.7,0l-28.5,16.4
				c-0.7,0.4-1.4,0.9-2,1.4c0,0,1.6-0.3,2.8,0.4c8,4.8,35.8,22.5,42.1,26.2c5.6,3.2,9.7,5.3,12.1,11.4c2.7,7,6.7,13.2,9.5,20.3
				c8.2,10.8,17.7,19.9,30.4,29c15.6-1.4,45.5-17.7,45.1-27.3C258.7,110.6,232.3,88.8,232.3,88.8z M176.4,55l-2.8,1.6L158,47.6
				l2.8-1.6c1-0.6,2.7-0.6,3.7,0l12.1,7C177.4,53.5,177.4,54.4,176.4,55z M205.1,74.8c2.7-2,4.5-3.6,5.3-4.4
				c5.3,4.6,15.7,14.7,18,17.7L205.1,74.8z"/>
			<g>
				<path class="st35" d="M263.8,119.2c-15.3,21.5-45.2,26.1-48.1,26.1c-0.7,0-2.9,0-2.9,0c0.5,1.4,1.3,2.8,1.9,3.3
					c1,0.9,3.3,0.6,4.5,0.6c2.7-0.1,30.7-4.3,45-24.5C265.3,123.1,264.7,121,263.8,119.2z"/>
				<path class="st36" d="M216.6,145.2c-0.4,0-0.7,0.1-0.9,0.1c-0.7,0-1.8,0.1-2.9,0c0.5,1.4,1.3,2.8,1.9,3.3
					c0.2,0.2,0.5,0.3,0.8,0.4c0.1,0,0.2,0.1,0.3,0.1c1.1,0.2,2.5,0.1,3.4,0.1c0.2,0,0.4,0,0.8-0.1
					C218.8,147.7,217.6,146.4,216.6,145.2z"/>
			</g>
			<path class="st29" d="M217.2,144.5c-7.1-1.4-107.7-59.9-112.1-62.8l-2,3c-0.4,0.5-0.6,1.2-0.7,1.8c-0.3,2.9-0.2,12.7-0.2,17
				c0,1.6,0.7,3.2,2,4.3c0.7,0.6,1.3,1,1.3,1c0.4-6.9,3.2-19.2,14.4-12.7c0.1,0.1,0.3,0.1,0.4,0.2c6,3.7,10.8,12,11.1,19
				c0,0-0.2,6.6-0.7,8.1l53.3,30.8v-8.5c0.3-7.1,5.5-9.8,11.6-6.2c0.1,0.1,0.3,0.2,0.4,0.2c6,3.7,12.8,10.4,12.8,25.7
				c5.8,2.4,12.4,2.5,18.9,1.3C227.7,164.2,220.6,145.2,217.2,144.5z"/>
			<path class="st37" d="M229.7,87.4c-6.6-6.6-12.5-12.2-18.5-17.3c-0.1-0.1-0.3-0.1-0.4,0c-0.1,0.1-0.2,0.2-0.4,0.4
				c5.3,4.6,15.7,14.7,18,17.7l-23.3-13.3c-5.5,4.1-14.6,10-27.5,14.6c-0.2,0.1-0.2,0.3-0.2,0.4l12.4,22.7c0.8,1.4,2.4,1.9,4,1.5
				c5.7-1.5,19.5-6.4,32.9-18.2C228.8,94.1,231.9,89.6,229.7,87.4z"/>
			<path class="st38" d="M170.8,50.1c-0.5-0.3-1-0.6-1.5-0.9l0.7,5.4l-12.2-7l-19.9,11.5c-1,0.6-1,1.5,0,2.1l12.1,7
				c1,0.6,2.7,0.6,3.7,0l19.9-11.5l-2.1-1.2L170.8,50.1z"/>
		</g>
		<g>
			<path class="st29" d="M183.9,113.9l-0.6,0.2c0,0,1.2,4.5,0.8,6.6c-0.3,2-2.5,18.3-2.9,21.3l-30.3-17.4v-16l3.7-12.1l-0.5-0.3
				l-3.8,12V125l31,17.8l0.4,0.2l0.1-0.5c0-0.2,2.6-19.5,3-21.7C185.1,118.5,183.9,114.1,183.9,113.9z"/>
		</g>
		<path class="st29" d="M148.2,123.6v-16.8l3.7-12.1l-0.5-0.3l-3.8,12.1v16l-16.4-9.5c0,0.3,0.1,0.5,0.1,0.8L148.2,123.6
			L148.2,123.6z M124.3,99.6v-6.8l3.7-12l-0.5-0.3l-3.8,12V99C123.9,99.3,124.1,99.4,124.3,99.6z"/>
		<path class="st14" d="M266.7,128.8c0-0.1,0-0.3,0-0.4c0-0.3-0.1-0.6-0.3-0.9c-0.3-0.4-0.7-0.6-0.7-0.7s0-0.1,0-0.1
			c-18.9,27.7-54.5,27.4-54.5,27.4s1.8,1.1,6.3,1.2C238.8,155.9,263.2,137.7,266.7,128.8z"/>
		<g class="st39">
			<path class="st40" d="M213.8,88.2c-3.1,1-6.2,4.1-6.8,6.9c-0.6,2.8,1.5,4.2,4.6,3.2c3.1-1,6.2-4.1,6.8-6.9
				C219,88.6,217,87.2,213.8,88.2z M213.7,89.1c0.2-0.1,0.4-0.1,0.6-0.1l-1.5,4.4l-3.5-1C210.4,90.8,212.1,89.6,213.7,89.1z
				 M217.7,91.8c-0.5,2.4-3.1,5.1-5.8,6c-2.7,0.9-4.5-0.4-4-2.8c0.2-0.7,0.5-1.5,1-2.2l4.3,1.2l1.8-5.3
				C217,88.7,218.1,89.8,217.7,91.8z"/>
			<path class="st40" d="M228.6,91.8c0-1.1,1.3-1.4,0.8-2.3c-0.1-0.2-1.9-1.4-2-1.4c-14.3,4.6-29.6,13.9-38.6,22.6
				c2,5,4.2,1.5,6.4,2.3C195.1,113,215,106,228.6,91.8z"/>
			<path class="st41" d="M223.1,89.7c-1.1,4.2-10.7,9-17.7,8.7c0,0,2.8-3.8,8-6.4C219.3,88.9,223.1,89.7,223.1,89.7z"/>
		</g>
		<path class="st42" d="M210.7,70.1c-1.5,1.4-12.8,12-33.2,19.3c-0.2,0.1-0.2,0.3-0.2,0.4l12.4,22.7c0.8,1.4,2.4,1.9,4,1.5
			c5.7-1.5,19.5-6.4,32.9-18.2c2.1-1.8,5.1-6.3,3-8.5C223,80.7,217.1,75.1,211,70C210.9,70,210.8,70,210.7,70.1z"/>
		<g>
			<path class="st43" d="M184.2,114.2l-71.4-41c0,0,6-8.9,9.1-11.7c0.9-0.8,1.5-1,2.6-0.3c9.7,5.5,41.5,23.9,45.9,26.5
				c1.3,0.7,2.3,1.8,3.1,3.1C176.6,96.6,183.6,111.6,184.2,114.2z"/>
			<path class="st38" d="M182.6,109c-0.7-1.7-1.5-3.3-2.2-5c-1.5-3.3-3.1-6.5-4.7-9.8l-1.3-2.4c-0.4-0.8-0.8-1.6-1.4-2.4
				c-0.6-0.7-1.3-1.4-2.1-1.9s-1.6-0.9-2.4-1.4l-9.4-5.4l-0.4-0.2l-35.3-20.3c-1.6-0.9-9.8,11.1-10.9,12.7c-0.1,0.2-0.1,0.4,0.1,0.5
				l39.4,22.7l31.9,18.2c0.1,0.1,0.2,0.1,0.3,0c0.2-0.1,0.3-0.3,0.2-0.5C184,112.3,183.3,110.7,182.6,109z M152.6,95.6l-39.1-22.4
				c1-1.3,8.7-12.9,10.2-12.1l34.9,20.1l0.4,0.3l9.4,5.4c0.8,0.5,1.6,0.9,2.3,1.4c0.7,0.5,1.4,1.1,1.9,1.8c0.5,0.7,0.9,1.5,1.4,2.3
				l1.2,2.4c1.6,3.2,3.2,6.5,4.7,9.8c0.8,1.6,1.5,3.3,2.2,4.9c0.6,1.3,1.1,2.7,1.6,4.1L152.6,95.6z"/>
		</g>
		
			<linearGradient id="SVGID_18_" gradientUnits="userSpaceOnUse" x1="246.4681" y1="7.9297" x2="117.6553" y2="98.2343" gradientTransform="matrix(1 0 0 1 0 96)">
			<stop  offset="0" style="stop-color:#ECECEC"/>
			<stop  offset="1" style="stop-color:#000000"/>
		</linearGradient>
		<path class="st44" d="M232.2,92.1c0,0-9.6,15.3-36.8,24c1.6,1.4,24.6,17.3,33.3,19.9c0,0,17.5-4.7,26.5-16.6
			C250.9,111.2,234.3,93.5,232.2,92.1z"/>
		<path class="st38" d="M230.1,87.7c-0.3-0.4-0.6-0.7-0.9-1c-0.6-0.6-1.2-1.2-1.8-1.8c-4.8-4.8-8.9-8.6-11.8-11.2
			c-1.5-1.3-2.6-2.3-3.4-3c-0.4-0.3-0.7-0.6-0.9-0.8c-0.1-0.2-0.4-0.2-0.5-0.1c-0.1,0.1-0.2,0.1-0.2,0.1s-1.6,1.6-4.7,4
			c-3.1,2.4-7.7,5.6-13.6,8.7c-3,1.6-6.2,3.2-9.8,4.6c-0.9,0.4-1.8,0.7-2.7,1.1c-0.5,0.2-0.9,0.4-1.4,0.5l-0.7,0.3l-0.2,0.1
			c-0.1,0-0.1,0-0.3,0.1c-0.2,0.2-0.3,0.4-0.2,0.7c1,1.8,2,3.6,3,5.5c2,3.7,4.1,7.5,6.2,11.4c1.1,1.9,2.1,3.9,3.2,5.9
			c0.5,1.1,1.7,1.8,2.9,1.9c0.6,0.1,1.2,0,1.7-0.2c0.5-0.2,1.1-0.3,1.6-0.5c8.6-2.7,16.6-7,23.5-11.8c0.9-0.6,1.7-1.2,2.5-1.9
			c0.8-0.6,1.6-1.3,2.4-1.9c1.5-1.3,3.2-2.5,4.4-4.1c0.6-0.8,1.1-1.6,1.5-2.5c0.4-0.9,0.7-1.8,0.6-2.8
			C230.6,88.5,230.4,88.1,230.1,87.7z M228.2,94c-1.1,1.5-2.8,2.7-4.3,4c-0.8,0.6-1.6,1.3-2.4,1.9c-0.8,0.6-1.7,1.2-2.5,1.8
			c-6.9,4.9-14.8,9-23.4,11.6c-0.5,0.2-1.1,0.3-1.6,0.5c-0.5,0.2-1,0.2-1.6,0.2c-1.1-0.1-2-0.7-2.5-1.7c-1.1-2-2.1-3.9-3.2-5.9
			c-2.1-3.9-4.2-7.7-6.2-11.4c-1-1.8-2-3.6-2.9-5.4l0.3-0.1l0.7-0.3c0.5-0.2,0.9-0.4,1.4-0.5c0.9-0.3,1.8-0.7,2.7-1.1
			c3.6-1.5,6.9-3.1,9.8-4.7c6-3.2,10.6-6.4,13.6-8.8c3.1-2.4,4.7-4,4.7-4l0,0c0.2,0.2,0.5,0.4,0.9,0.8c0.8,0.7,2,1.7,3.4,3
			c2.9,2.6,7,6.4,11.8,11.2c0.6,0.6,1.2,1.2,1.8,1.8c0.3,0.3,0.6,0.6,0.9,0.9c0.2,0.3,0.4,0.7,0.4,1.2
			C230.3,90.8,229.3,92.5,228.2,94z"/>
		<path class="st38" d="M229.7,87.4c-0.3-0.3-0.6-0.6-0.9-0.9c2,9.7-36.1,28.4-38.9,26.1c0.8,1.4,2.4,1.9,4,1.5
			c5.7-1.5,19.5-6.4,32.9-18.2C228.8,94.1,231.9,89.6,229.7,87.4z"/>
		<polygon class="st38" points="159.5,81.6 156.3,79.7 151.1,95 154.4,96.9 		"/>
		<polygon class="st38" points="133.1,66.4 131.7,65.7 126.6,80.8 128,81.6 		"/>
		<path class="st38" d="M179.6,103.2c0-0.1-0.1-0.1-0.1-0.2c-0.2-0.5-0.5-0.9-0.7-1.4l-2.6,7.8l1.4,0.9l2.2-6.6
			C179.8,103.5,179.7,103.4,179.6,103.2z"/>
		<path class="st45" d="M261.1,139.5c-6.3,6.6-15.7,12-24.7,15.5c-0.2,0.1-0.3,0.2-0.3,0.4v6.6c0,0.3,0.2,0.5,0.5,0.4
			c3.9-0.8,21.7-11,25-15.5c0.2-0.2,0.2-0.5,0.2-0.8v-6.3C261.8,139.4,261.4,139.2,261.1,139.5z"/>
		<path class="st14" d="M236.6,161.1c-0.2,0.1-0.5-0.2-0.5-0.4v1.4c0,0.3,0.2,0.5,0.5,0.4c3.9-0.8,21.7-11,25-15.5
			c0.2-0.2,0.2-0.5,0.2-0.8v-1.4c0,0.3-0.1,0.6-0.2,0.8C258.5,150.2,240.5,160.2,236.6,161.1z"/>
		<path class="st38" d="M177.6,115.2l3.1,0.2c1.4,0.1,2.8-0.2,4.1-0.8c-0.6-1.4-1.1-2.9-1.8-4.3l-3.7,1.7L177.6,115.2z"/>
		<path class="st22" d="M179.5,110.7c-0.9-0.1-7.3,2-7.2,2.8c0.2,1.5,2.4,3.4,3.8,3.7c1.3,0.3,6.8-1.5,6.8-2
			C182.9,114.2,181.1,110.8,179.5,110.7z"/>
		<g>
			<path class="st29" d="M157.5,110.9l-1.6-0.9c-0.6-0.3-1-1-1-1.6v-2c0-0.6,0.4-0.7,1-0.4l1.6,0.9c0.6,0.3,1,1,1,1.6v2
				C158.4,111,158.1,111.2,157.5,110.9z"/>
			<path class="st41" d="M158.7,110l-4.2-2.4c-0.4-0.3-0.8-0.8-0.8-1.2s0.4-0.6,0.8-0.3l4.2,2.4c0.4,0.3,0.8,0.8,0.8,1.2
				C159.5,110.1,159.1,110.3,158.7,110z"/>
		</g>
		<g>
			<path class="st29" d="M130.5,95.3l-1.6-0.9c-0.6-0.3-1-1-1-1.6v-2c0-0.6,0.4-0.7,1-0.4l1.6,0.9c0.6,0.3,1,1,1,1.6v2
				C131.5,95.4,131,95.6,130.5,95.3z"/>
			<path class="st41" d="M131.7,94.4l-4.2-2.4c-0.4-0.3-0.8-0.8-0.8-1.2c0-0.4,0.4-0.6,0.8-0.3l4.2,2.4c0.4,0.3,0.8,0.8,0.8,1.2
				C132.5,94.5,132.2,94.7,131.7,94.4z"/>
		</g>
		<path class="st46" d="M106.2,73.7c-1.5-0.7-4.1,9.8-3.6,12.2l2.6-4.2C107,76.4,106.2,73.7,106.2,73.7z"/>
		<path class="st34" d="M138.1,60l22.6-13c1-0.6,2.7-0.6,3.7,0l12.1,7c0.3,0.2,0.5,0.4,0.6,0.6c0.3-0.5,0.1-1.1-0.6-1.5l-12.1-7
			c-1-0.6-2.7-0.6-3.7,0l-22.6,13c-0.7,0.4-0.9,1-0.6,1.5C137.6,60.4,137.8,60.2,138.1,60z"/>
		<path class="st42" d="M176.4,55l-22.6,13c-1,0.6-2.7,0.6-3.7,0l-12.1-7c-1-0.6-1-1.5,0-2.1l22.6-13c1-0.6,2.7-0.6,3.7,0l12.1,7
			C177.4,53.5,177.4,54.4,176.4,55z"/>
	</g>
	<g>
		<path class="st47" d="M114.4,78.9c-0.9-0.6-1.9-0.1-2.3,1c-0.4,1.2,0.1,2.6,0.9,3.2c0.9,0.6,1.9,0.1,2.3-1
			C115.7,80.9,115.2,79.4,114.4,78.9z"/>
	</g>
	<g>
		<g>
			<g>
				<path class="st47" d="M70.6,139.5c-3.9,0-7.7-0.8-10.7-2.6c-2.9-1.7-4.6-4-4.6-6.5c0-2.5,1.6-4.8,4.6-6.5
					c5.9-3.4,15.4-3.4,21.3,0c2.9,1.7,4.6,4,4.6,6.5c0,2.5-1.6,4.8-4.6,6.5C78.4,138.6,74.5,139.5,70.6,139.5z M70.6,122.5
					c-3.7,0-7.4,0.8-10.2,2.4c-2.6,1.5-4.1,3.5-4.1,5.6s1.4,4.1,4.1,5.6c5.6,3.2,14.6,3.2,20.3,0c2.6-1.5,4.1-3.5,4.1-5.6
					s-1.4-4.1-4.1-5.6C78,123.4,74.3,122.5,70.6,122.5z"/>
			</g>
			<path class="st48" d="M100.2,80c0,0.2,0.1,0.4,0.2,0.7c0,0.1,0.1,0.2,0.1,0.2c0.5-0.1,1-0.2,1.5-0.1c1.3,0.2,2.4,0.4,3.7,0.5
				c0,0-1.6-2-0.8-2c0.4,0,0.8,0,1.2,0c1.5,0.1,1.4-0.9,0.8-0.9s-1.1-0.1-1.7-0.1c-0.8-0.1-1.4-0.7-2.2-0.9c-0.1,0-0.2,0-0.2,0
				c-1-2.5-4.8-10.7-4.8-10.7c0.1-2.5,0.5-5.9,0.6-8c0-0.5-0.6-0.6-0.8-0.2c-1.5,2.8-4.8,9-4.4,9.7c0,0.8,4.6,8,6.3,10.5
				C100,79,100.1,79.5,100.2,80z"/>
			<g>
				<g>
					<g>
						<path class="st49" d="M106.6,122.4c-0.5-0.8-2.2-1.4-3.9-2.1s-4.2-1.7-4.3-2c-0.1-0.2,0-0.5-0.2-0.6c-0.1-0.1-0.2-0.1-0.4-0.2
							c-1.2-0.2-2.5,0-3.6,0.5c-0.5,0.3-1.1,1.3-1.1,1.3c0.1,0.7,0,2.8,0.1,3.1c0,0,2.6,1.1,2.7,1.1c0.2,0.1,0.3-0.2,0.5-0.2
							c1.9,1,4.3,1.8,5.5,1.9c1.3,0.2,4.1,0.7,4.8-0.8C107,123.8,106.9,123,106.6,122.4z"/>
						<g>
							<path class="st50" d="M106.7,123.7c-0.7,1.5-3.5,1-4.8,0.8c-1.1-0.2-8.8-3.2-8.8-3.2c-0.1,0.8,0,1.1,0.1,1.2
								c0,0,2.6,1.1,2.7,1.1c0.2,0.1,0.3-0.2,0.5-0.2c1.9,1,4.3,1.8,5.5,1.9c1.3,0.2,4.2,0.7,4.9-0.8c0.2-0.4,0.2-0.9,0.1-1.3
								C106.8,123.3,106.8,123.6,106.7,123.7z"/>
						</g>
					</g>
					<g>
						<path class="st49" d="M72.5,133.6c1.7,1.4,4.2,1,5.1,0.3c1.2-1.1-0.9-4.4-1.1-8.3c0-0.2,0.1-2.1,0-2.2
							c-1.4-0.8-4.9-2.1-5.8-0.9c-0.3,0.4-0.2,2.1-0.3,2.6C70.3,128.3,70.1,131.6,72.5,133.6z"/>
						<path class="st50" d="M77.8,132.9c-0.9,0.8-3.4,1.1-5.1-0.3c-2.4-2-2.2-5.2-2.1-8.6c0-0.3,0-0.9,0-1.4c-0.3,0.5-0.2,2-0.2,2.5
							c-0.1,3.4-0.3,6.6,2.1,8.6c1.7,1.4,4.2,1,5.1,0.3c0.3-0.3,0.4-0.8,0.4-1.4C77.9,132.7,77.9,132.9,77.8,132.9z"/>
					</g>
					<path class="st51" d="M76.7,88.3c-0.4,4.1-0.9,8.1-1.1,11.5c0,0.7-0.1,1.3-0.3,2c-0.2,0.7-0.4,1.3-0.7,1.9
						c-2,5-3.5,14-4.3,19.3c-0.3,1.8,5.9,2.9,6.4,0.7c0.2-0.7,3-12.6,4.4-15.7c0.8-1.7,1.9-3.2,2.6-4.9c0.5-1.2,0.8-2.5,1.1-3.8
						c0.9-3.7,2.1-7.4,3.5-10.9c0.5-1.2,1-2.4,1-3.6l-11.2-3.9C77.7,82.2,76.9,85.7,76.7,88.3z"/>
					<path class="st51" d="M87.8,98.8c0.1,0.8,0.2,3.6,0.9,6.6c1.3,5.7,3.4,12.8,3.6,14.1c0.3,1.8,7,0.7,6.6-1.3
						c0,0-2.4-20.2-2.4-20.6c-0.1-0.8-0.1-1.5-0.1-2.3c0-1-0.1-2.3-0.1-3.3c-0.3-4.3-0.5-8.2-0.9-11.7c-3.1,0.1-9.5,5.5-9.7,7.4
						c-0.1,0.9,0.3,1.7,0.5,2.6C86.8,93.2,87.3,95.9,87.8,98.8z"/>
				</g>
				<path class="st52" d="M86.2,53.1c-1.9,0.6-4,1.1-5.8,1.9c-1.9,0.8-3.4,2.4-3.8,4.5c-0.4,2.1-0.1,5.1,1.4,9.3
					c0.5,1.4,1,3.9,1.1,5.4c0.1,1.4,0.1,2.3-0.2,4c-0.1,0.8-0.5,2.2-0.8,2.9c-1.8,3.8,5.9,5.6,9.9,5c3.7-0.5,7.7-1.6,7.6-5.3
					c-0.1-4-0.4-8,0.5-11.9c0.5-2.1,1.3-4.1,1.7-6.2c0.2-1.3,0.3-2.5,0.3-3.8l0.1-2.8c0.1-2.4-1.7-4.4-4.1-4.5
					C91.5,51.4,88.7,52.4,86.2,53.1z"/>
				<path class="st52" d="M93.8,51.6c-4.4,0,2.7,8.4,2.7,8.4l-0.1,1.2c0,0,2.9-0.2,2.8-1.5C99.1,56.4,98.2,51.6,93.8,51.6z"/>
				<g>
					<path class="st48" d="M91.1,51.8c-2.1,0.8-4.3,1.2-7.8,2.5c-0.4,0.2-0.6,0.7-0.4,1.1c1.6,2.5,4.2,5.2,7,4.1H90
						c2-0.8,3.1-3,2.5-5C92.2,53.2,91.7,52.7,91.1,51.8z"/>
					<path class="st53" d="M87.5,49.4l-3.1,5.3c0,0,0,0.8,0.9,2c1.5,2,3,2.2,4,2c0.6-0.1,1.2-0.5,1.4-1.1l0.2-0.6L87.5,49.4z"/>
					<path class="st48" d="M89.2,42.8c-2.3,0.9-4,2.5-3.5,6.9c0.4,3.4,3.3,6.8,5.8,8.7c0.6,0.5,2.6,0.9,3.2-0.5
						c0.5-1.2,1.8-4.9,1.8-8c0-2.5-0.1-4.7-2-6.3C93.2,42.5,91.6,41.9,89.2,42.8z"/>
					<path class="st54" d="M89.7,51.3c0.5-3.2,4.6-1,6.8-3.2c0.4-1.3-0.2-3.4-2-4.9c-1.3-1.1-3.1-1.8-5.5-0.8
						c-2.3,0.9-4.1,2.7-3.5,7.3c0,0.3,0.6,3,1.2,3c0.4-0.1,0.1-1.5,0.2-1.9c0.1-0.7,0.8-1,1.3-0.5c0.2,0.2,0.4,0.5,0.4,0.8
						s-0.1,0.6,0.1,0.9C88.9,52.4,89.5,52.3,89.7,51.3z"/>
				</g>
			</g>
			<g>
				<path class="st47" d="M82.7,135.8c-0.1,0-0.3-0.1-0.4-0.2c-0.2-0.2-0.1-0.5,0.1-0.7c5-3.9,4.3-13.1,3.9-18.1
					c-0.1-0.9-0.1-1.7-0.1-2.2c0-3-0.6-6-1.1-8.9c-0.9-4.7-1.8-9.5-0.6-14.1c0.6-2.5,1.9-4.8,3.7-6.7c0.2-0.2,0.5-0.2,0.7,0
					s0.2,0.5,0,0.7c-1.7,1.7-2.9,3.9-3.5,6.2c-1.2,4.5-0.3,9,0.6,13.7c0.6,3,1.1,6.1,1.2,9.1c0,0.5,0.1,1.3,0.1,2.1
					c0.4,5.2,1.1,14.7-4.3,18.9C82.9,135.8,82.8,135.8,82.7,135.8z"/>
			</g>
			<path class="st47" d="M94.5,79.3c-0.6,0.2-1.7,1.1-2.4,1.6c-1.3,0.9-2.4,1.8-3.6,2.8c-0.4,0.3-1.1,0.9-1.6,1.5
				c-0.2,0.3-0.2,0.7,0.1,0.9c0.6,0.5,1.2,0.9,1.9,1.3c0.6,0.4,1.3,0.5,2,0.4s1.3-0.2,1.9-0.5c2.3-0.9,5.9-4.5,7.6-6.3
				C100.5,81,95.3,79.1,94.5,79.3z M93.8,85.3c-0.8,0.5-1.8,1.2-2.7,1.3c-0.6,0.1-1.7-0.6-1.7-0.7c0-0.3,5.8-4.6,5.8-4.6
				s3.1,0.1,3,0.2C98.2,81.5,95,84.5,93.8,85.3z"/>
			<g>
				<path class="st48" d="M94.1,82.1C92,83.7,90,82.6,90.4,82c0-0.1,0.2-0.2,0.3-0.2c0.6-0.3,0.9-1.2,0.5-1.8c0-0.1-0.1-0.1-0.1-0.1
					c-0.1-0.1-0.3,0-0.3,0.1c-0.2,0.2-0.2,0.3-0.3,0.5s-0.4,0.3-0.6,0.4c-0.6,0.2-1.3,0.3-1.9,0.3c-6.9-2.8-9.4-4.9-9.4-4.9
					c1.2-3.5,3.5-9.5,2.7-10.8c-0.3-0.4-1.6-0.9-2.2-0.9l-4.4,0.4c0.1,0.5-0.5,4.2-0.9,8c-0.3,3.5-0.4,5,0,5.7
					c1.1,1.8,10.1,4.3,12.9,5.8c0.5,0.2,1.9,1.1,3.3,1.9c0.5,0.3,1.7,0,2.4-0.4c0.8-0.4,1.5-1.2,1.7-1.5c0.1-0.1,0.1-0.3,0.2-0.4
					c0.1-0.2,0.3-0.4,0.3-0.6C94.8,83,94.4,81.9,94.1,82.1z"/>
				<path class="st52" d="M74,66.5c-0.2,2.1,8.9,2.8,9,0.4c0-0.8,0.5-9.1-1.2-11.1c0,0-0.3-1.2-0.4-1.2c-2,0.5-4.8,2.6-5.8,5
					C74.8,61.2,74.3,63.4,74,66.5z"/>
			</g>
			<path class="st47" d="M114,80.1l-19.2-0.8c-0.6-0.1-1,0.4-1,1c0,0.6,0.4,1,1,1c0,0,18.7,0.5,19.2,0.5S114.4,80.1,114,80.1z"/>
			<path class="st48" d="M102,83.1c0.6,0.2,2.2,0.2,2.5,0.2c0.5-0.1,1.3-0.3,1.3-1.6l-0.6-0.1c-0.2-0.6-0.6-1.3-0.7-1.4
				c-0.2-0.2-0.5-0.2-0.8,0c-0.1,0.1-0.3,0.2-0.4,0.2c-0.2,0-0.5-0.2-0.8-0.2c-0.3,0-0.5,0.1-0.8,0.2c-0.1,0.1-0.1,0.1-0.2,0
				c-0.4-0.3-0.8-0.2-0.8,0.3c0,0.3,0.1,0.7,0.2,1C101,82.3,101.4,82.8,102,83.1z"/>
		</g>
	</g>
	<g>
		<path class="st47" d="M122.2,185.8c-15.3,0-30.5-4.1-44-11.8L78,174c-10.2-5.9-20.1-13.5-29.5-22.9c-3.2-3.2-6.2-5.1-9.4-6
			c-0.9-0.3-1.9-0.5-2.9-0.7c-3.4-0.7-6.9-1.4-8.4-4.7c-0.8-1.6-0.8-3.4-0.2-5.3c0.9-2.5,3.1-4.7,6.2-6.2c0.3-0.2,0.6-0.3,0.9-0.4
			c3.1-1.4,4.7-2.2,4.8-8.4C40,93.7,40,68.8,39.4,43.1c0-0.7,0.3-1.3,0.9-1.7l0.9-0.5c0.2-0.1,0.5-0.1,0.7,0.2
			c0.1,0.2,0.1,0.5-0.2,0.7l-0.9,0.5c-0.3,0.2-0.4,0.5-0.4,0.8c0.6,25.7,0.6,50.7,0,76.4c-0.2,6.9-2.2,7.9-5.4,9.3
			c-0.3,0.1-0.6,0.3-0.9,0.4c-2.9,1.4-4.9,3.4-5.7,5.7c-0.5,1.6-0.5,3.2,0.1,4.5c1.4,2.8,4.5,3.5,7.7,4.1c1,0.2,2,0.4,2.9,0.7
			c3.4,1,6.5,3,9.9,6.3c9.4,9.3,19.2,16.9,29.3,22.7l0.2,0.1c13.3,7.7,28.4,11.7,43.5,11.7c0.2,0,0.4,0,0.6,0
			c16.8-0.1,28.1-4.9,31.7-13.4c3.1-7.3,0-15.3-4.5-20c-14.7-15.4-30.8-12.4-41.5-8.7c-10.8,3.7-31.8,2.9-46.9-4.9
			c-0.2-0.1-0.3-0.4-0.2-0.7c0.1-0.2,0.4-0.3,0.7-0.2c14.8,7.6,35.5,8.5,46.1,4.8c11.1-3.8,27.4-7,42.5,8.9c4.7,5,8,13.3,4.7,21.1
			c-3.8,9-15.3,13.9-32.6,14C122.6,185.8,122.4,185.8,122.2,185.8z"/>
	</g>
	<path class="st55" d="M119.6,167.2H85.1c-12.7,0-23-10.3-23-23V37.1c0-12.7,10.3-23,23-23h34.5c12.7,0,23,10.3,23,23v107.2
		C142.6,156.9,132.4,167.2,119.6,167.2z"/>
	<g>
		<g>
			<g>
				<defs>
					<path id="SVGID_19_" d="M128.6,20.2h-6.3v0.3c0,2.5-2,4.6-4.6,4.6H85.8c-2.5,0-4.6-2-4.6-4.6v-0.3h-5.2c-5.1,0-9.2,4.1-9.2,9.2
						v122.6c0,5.1,4.1,9.2,9.2,9.2h52.4c5.1,0,9.2-4.1,9.2-9.2V29.3C137.7,24.2,133.6,20.2,128.6,20.2z"/>
				</defs>
				<clipPath id="SVGID_20_">
					<use xlink:href="#SVGID_19_"  style="overflow:visible;"/>
				</clipPath>
				<g class="st56">
					<rect x="48.7" y="9.1" class="st15" width="108.4" height="160.7"/>
					<g>
						<path class="st57" d="M127.3,30l1.3,12.4l8.2,7.8l1.9-0.6l5.9-6.5c0,0,10.5-20.8,10.4-21c-0.3-0.1-8.5-13-8.5-13l-17.5,17.7
							L127.3,30z"/>
						
							<rect x="137.1" y="112.8" transform="matrix(0.4695 -0.8829 0.8829 0.4695 -31.5982 186.5863)" class="st57" width="4.7" height="13.5"/>
						
							<rect x="146.5" y="121.7" transform="matrix(0.4695 -0.8829 0.8829 0.4695 -30.7218 197.3081)" class="st57" width="4.7" height="5"/>
						
							<rect x="152.8" y="123.3" transform="matrix(0.4695 -0.8829 0.8829 0.4695 -30.7067 205.6217)" class="st57" width="5.9" height="10.2"/>
						<polygon class="st57" points="118.5,9.4 117.8,15.7 118.6,17.1 122,16.5 128.9,8.6 						"/>
						<path class="st57" d="M149.4,9.5c1.4,1.6,3.1,5.4,3.1,5.4l4.7,0.8c0,0,1.2-5.9,1.2-6L149.4,9.5z"/>
						<polygon class="st57" points="157.1,19.3 155.3,22.1 157.2,22.9 						"/>
						<path class="st57" d="M153.1,52.5l2.4,11.2c0,0,2.7,1,2.7,0.9s1.2-16.2,1.2-16.3c0-0.2-1.7-2.5-1.7-2.5L153.1,52.5z"/>
						<path class="st57" d="M153.8,141L153.8,141c-1.2,2.1-3.9,2.9-6,1.7l-14.3-8c-2.1-1.2-2.9-3.9-1.7-6l0,0c1.2-2.1,3.9-2.9,6-1.7
							l14.3,8C154.2,136.2,155,138.9,153.8,141z"/>
						<path class="st57" d="M49.2,130.6c0.4,0.2,34.2,19.4,34.2,19.4l2.7,5.4L81.2,170c0,0-33.3,1.9-33.7,0.9
							c-0.4-1.1-4.3-22.7-4.2-23.3C43.3,146.9,49.2,130.6,49.2,130.6z"/>
						<path class="st57" d="M143.9,169.1c0,0-1.7-1.6-1.8-1.7c0-0.1,0-2,0-2s0.4-4.3,4.3-4.3c0.9,0,1.2,0.3,2.6,3.5
							c0.3,0.8,1.1,1.4,2,1.5c0.7,0.1,1.6-0.2,2.1-1.6c0.3-0.8,0.1-1.8-0.4-2.5l-3.2-3.7c-1-1.1-1.1-2.8-0.3-4l9.6-15.4l1.6,28.4
							c0,0-2.5,4.8-3.6,4.3C155.5,171.1,143.9,169.1,143.9,169.1z"/>
						<polygon class="st57" points="102.6,139.8 104.3,139.3 110.7,143.2 107.6,148.9 109,149.6 108.4,150.9 99.9,145.9 						"/>
						<path class="st57" d="M108.6,130c0,0,3.2-9.4,4.9-9.5c0,0,1.4,0,2.8,0.9c1.3,0.9,1.7,2.6,1,4l-1.8,3.4
							c-0.9,1.8-2.9,2.8-4.9,2.4C109.9,131,109.2,130.7,108.6,130z"/>
						<polygon class="st57" points="117.5,113.4 116.2,116.4 119.6,117.6 123.2,115.1 125,116.3 127.8,115.5 130.1,112.8 
							129.4,111.5 						"/>
						<polygon class="st57" points="124.1,104.8 122.4,103.7 137.9,71.6 139.2,71.4 140.8,73.5 138.2,75.7 						"/>
						<path class="st57" d="M122.9,148.7c0.9,0.7,2,1.3,3.1,1.7c0.7,0.3,1.5,0.7,2.3,0.3s1.1-1.5,0.8-2.4c-0.3-0.9-1-1.5-1.7-2.1
							c-1.3-1.1-3.2-2.5-4.9-1.5C120.8,145.7,121.9,147.8,122.9,148.7z"/>
						<path class="st57" d="M130.5,146.2c1.2,0.4,2.5,0.3,3.8,0.1c0.9-0.1,1.7-0.4,2.5-0.6c0.4-0.1,0.8-0.3,1.1-0.7
							c0.3-0.6,0-1.3-0.6-1.7c-0.6-0.3-1.2-0.3-1.9-0.3c-0.6,0-1.3,0-1.9-0.3c-0.8-0.4-1.2-1.3-1.9-1.7c-0.7-0.5-1.7-0.6-2.5-0.3
							c-1.5,0.5-1.6,2.7-0.9,3.8C128.7,145.2,129.6,145.8,130.5,146.2z"/>
					</g>
					<g class="st39">
						<polyline class="st58" points="49.3,131.5 61,138.2 64.6,141.5 64.3,143.2 59,153.1 						"/>
						<polyline class="st58" points="63.7,150.2 62.3,152.5 57,153.8 55,156.5 54.9,159.7 52.8,163.7 49.5,167.1 						"/>
						<line class="st58" x1="61.3" y1="169.5" x2="52.8" y2="163.7"/>
						<line class="st58" x1="57.5" y1="161.1" x2="54.9" y2="159.7"/>
						<polyline class="st58" points="65.4,162.6 68,157.9 68.2,155.8 67,154.5 62.3,152.5 						"/>
						<g>
							<line class="st59" x1="132.6" y1="22.4" x2="131.8" y2="23.2"/>
							<line class="st59" x1="133.1" y1="22.9" x2="132.3" y2="23.7"/>
							<line class="st59" x1="133.6" y1="23.4" x2="132.7" y2="24.2"/>
							<line class="st59" x1="134.1" y1="24" x2="133.2" y2="24.8"/>
							<line class="st59" x1="134.6" y1="24.5" x2="133.7" y2="25.3"/>
							<line class="st59" x1="135.1" y1="25.1" x2="134.2" y2="25.9"/>
						</g>
						<g>
							<line class="st59" x1="141.4" y1="13.4" x2="140.5" y2="14.2"/>
							<line class="st59" x1="142" y1="13.9" x2="141.1" y2="14.7"/>
							<line class="st59" x1="142.5" y1="14.4" x2="141.6" y2="15.2"/>
							<line class="st59" x1="143" y1="15" x2="142.1" y2="15.8"/>
							<line class="st59" x1="143.5" y1="15.5" x2="142.6" y2="16.3"/>
							<line class="st59" x1="144" y1="16.1" x2="143.1" y2="16.9"/>
						</g>
						<path class="st58" d="M145.8,41.8c-0.2-0.1-9.1-5.2-9.1-5.2"/>
						<line class="st58" x1="144.2" y1="16.7" x2="153.8" y2="24.1"/>
						<g>
							<g>
								<g>
									<line class="st60" x1="65.2" y1="35.7" x2="66.1" y2="36.2"/>
									<polyline class="st61" points="68.1,37.3 73.6,40.4 81.2,47.4 84.8,49.7 									"/>
									<line class="st60" x1="85.6" y1="50.4" x2="86.4" y2="51.1"/>
								</g>
							</g>
							<polyline class="st58" points="85.3,50.1 100,48.3 110,58.2 108.2,60.2 							"/>
							<polyline class="st58" points="137.7,63.9 134.9,61.3 130.7,59.4 118.7,58 109.9,58.2 							"/>
							<line class="st58" x1="130.6" y1="47.3" x2="131.1" y2="70.5"/>
							<line class="st58" x1="137.8" y1="53.6" x2="129.2" y2="75.4"/>
							<line class="st58" x1="127.7" y1="78.9" x2="103" y2="130.8"/>
							<polyline class="st58" points="90.6,156.2 89.4,155.8 89,152.3 48.7,129.2 							"/>
							<line class="st58" x1="83.3" y1="169.8" x2="89.4" y2="155.8"/>
							<path class="st58" d="M115.2,169.3c-0.3-0.1-21.4-12.2-21.4-12.2"/>
							<line class="st58" x1="90.9" y1="169.4" x2="95.6" y2="158.1"/>
							<path class="st58" d="M133.5,169.3c-0.4-0.3-19.1-10.6-27-14.9c-1.9-1.1-2.6-3.5-1.5-5.4l5.3-9.4"/>
							<path class="st58" d="M48.9,111.8c0-0.4,40.8-35.9,40.8-35.9S76.4,54.6,60.8,45.4l-13.9,8"/>
							<polyline class="st58" points="117,23.1 118.8,21.1 105.5,9.4 							"/>
							<path class="st58" d="M116.4,22.9c-0.2,0-12.3-10.7-12.3-10.7l-0.7,0.6l-3.8-3.3"/>
							<line class="st58" x1="98.5" y1="12.6" x2="95.6" y2="9.8"/>
							<path class="st58" d="M111.8,27.8c0-0.1-3.2-2.8-3.2-2.8l-7.8,8.2l6.9,7L91.8,56.1"/>
							<g>
								<line class="st59" x1="126.9" y1="36.1" x2="127.1" y2="37.3"/>
								<line class="st59" x1="127.7" y1="36" x2="127.9" y2="37.2"/>
								<line class="st59" x1="128.4" y1="35.8" x2="128.6" y2="37"/>
								<line class="st59" x1="129.1" y1="35.7" x2="129.3" y2="36.9"/>
								<line class="st59" x1="129.8" y1="35.5" x2="130.1" y2="36.7"/>
								<line class="st59" x1="130.6" y1="35.4" x2="130.8" y2="36.6"/>
							</g>
							<path class="st58" d="M157.3,30c-0.1,0-29.4-3.5-29.4-3.5"/>
							<line class="st58" x1="156.5" y1="36.4" x2="144" y2="28.4"/>
							<line class="st58" x1="130.7" y1="35.9" x2="141.3" y2="48.9"/>
							<path class="st58" d="M132.1,28.6c0.1-0.2,17.6-17.6,17.6-17.6l5.1,11.3l2.7,3.1"/>
							<path class="st58" d="M158.9,14.1c-0.1-0.1-8.5-1.2-8.5-1.2"/>
							<line class="st58" x1="157.1" y1="15.8" x2="148" y2="38.5"/>
							<polyline class="st58" points="146.9,63 153.8,59.7 157.6,55.4 							"/>
							<polyline class="st58" points="138.8,64.7 139.7,65.7 136.4,75.2 110.4,126.8 97.9,152.4 128.8,170.6 							"/>
							<line class="st58" x1="123.7" y1="137.2" x2="136.4" y2="144.7"/>
							<line class="st58" x1="140" y1="139.2" x2="131.6" y2="154.2"/>
							<path class="st58" d="M128.2,127.3c0-0.1,2.7-5,2.7-5l2.8-1.6l24.2,13.2"/>
							<line class="st58" x1="132.6" y1="110.4" x2="158" y2="124.5"/>
							<path class="st58" d="M127.5,139.9l-1.3,2.4c-0.5,1-0.2,2.3,0.7,2.9l3.4,2.2c0.9,0.6,1.2,1.8,0.7,2.8l-1.7,3"/>
							<polyline class="st58" points="66.5,102.3 72.3,106.9 90.2,116.2 							"/>
							<polyline class="st58" points="100.4,107.5 91.7,111.1 89.6,119.2 							"/>
							<path class="st58" d="M66.3,120.4c-0.2-0.1-15.5-4-15.5-4"/>
							<line class="st58" x1="71.6" y1="97.1" x2="48.9" y2="117.7"/>
							<path class="st58" d="M104.5,83.6v2l-9.3,13.9c0,0-7.3-2.8-7.6-3.2c-0.3-0.3-6.1-7.5-6.1-7.5l-4,0.3"/>
							<line class="st58" x1="98.5" y1="99.3" x2="97.2" y2="103.6"/>
							<line class="st58" x1="95.2" y1="99.6" x2="97.9" y2="100.6"/>
							<line class="st58" x1="109" y1="104.9" x2="114.6" y2="106.1"/>
							<polyline class="st58" points="117.2,87.2 105.8,84.9 104.3,91.4 							"/>
							<path class="st58" d="M90.6,97.5c0,0,12.2-10.4,12.1-10.6c-0.1-0.1-9.8-10.7-9.8-10.7"/>
							<line class="st58" x1="91.8" y1="79.7" x2="94.2" y2="77.7"/>
							<line class="st58" x1="72.7" y1="57.5" x2="49.6" y2="77"/>
							<polyline class="st58" points="54.5,72.7 56.5,75.5 58.9,73.5 73.1,90.4 							"/>
							<line class="st58" x1="137.5" y1="94.9" x2="128.8" y2="90.6"/>
							<polyline class="st58" points="141.3,77.6 145.1,74.4 144.6,73.1 148,70.3 146.2,68.8 149.7,65.8 							"/>
							<polyline class="st58" points="95.7,131 101.8,132.8 98.8,136.2 93.1,147.2 91.4,147.6 49,124.4 							"/>
							<g>
								<line class="st59" x1="88.7" y1="151.1" x2="89.8" y2="151.7"/>
								<line class="st59" x1="89.1" y1="150.6" x2="90.1" y2="151.1"/>
								<line class="st59" x1="89.4" y1="149.9" x2="90.5" y2="150.5"/>
								<line class="st59" x1="89.8" y1="149.3" x2="90.8" y2="149.8"/>
								<line class="st59" x1="90.1" y1="148.6" x2="91.2" y2="149.2"/>
								<line class="st59" x1="90.5" y1="147.9" x2="91.5" y2="148.5"/>
							</g>
							<g>
								<line class="st59" x1="93.8" y1="147.2" x2="92.9" y2="147.9"/>
								<line class="st59" x1="94.3" y1="147.8" x2="93.3" y2="148.5"/>
								<line class="st59" x1="94.8" y1="148.3" x2="93.8" y2="149.2"/>
								<line class="st59" x1="95.2" y1="148.9" x2="94.3" y2="149.7"/>
								<line class="st59" x1="95.7" y1="149.5" x2="94.8" y2="150.2"/>
								<line class="st59" x1="96.2" y1="150.2" x2="95.2" y2="150.7"/>
							</g>
							<g>
								<line class="st59" x1="95.6" y1="157.1" x2="96.7" y2="157.5"/>
								<line class="st59" x1="95.9" y1="156.3" x2="97" y2="156.9"/>
								<line class="st59" x1="96.3" y1="155.7" x2="97.3" y2="156.2"/>
								<line class="st59" x1="96.6" y1="155.1" x2="97.6" y2="155.5"/>
								<line class="st59" x1="96.9" y1="154.3" x2="98" y2="154.8"/>
								<line class="st59" x1="97.2" y1="153.6" x2="98.3" y2="154.2"/>
							</g>
							<g>
								<line class="st59" x1="131" y1="117.7" x2="132.1" y2="118.3"/>
								<line class="st59" x1="131.4" y1="117" x2="132.4" y2="117.6"/>
								<line class="st59" x1="131.7" y1="116.4" x2="132.7" y2="116.9"/>
								<line class="st59" x1="132" y1="115.7" x2="133" y2="116.2"/>
								<line class="st59" x1="132.3" y1="115" x2="133.3" y2="115.5"/>
								<line class="st59" x1="132.6" y1="114.3" x2="133.6" y2="114.9"/>
							</g>
							<g>
								<line class="st59" x1="127.1" y1="78.7" x2="128.2" y2="79.2"/>
								<line class="st59" x1="127.5" y1="78" x2="128.5" y2="78.5"/>
								<line class="st59" x1="127.8" y1="77.3" x2="128.8" y2="77.8"/>
								<line class="st59" x1="128.1" y1="76.6" x2="129.2" y2="77.2"/>
								<line class="st59" x1="128.4" y1="75.9" x2="129.5" y2="76.5"/>
								<line class="st59" x1="128.7" y1="75.3" x2="129.8" y2="75.8"/>
							</g>
							<polyline class="st58" points="49,17.6 63.9,31.4 62.3,33.2 							"/>
							<polyline class="st58" points="117.6,113.1 128.7,111.3 134.2,112.8 157.8,125.1 							"/>
							<path class="st58" d="M127.3,136.5c0-0.1,0.2-0.3,0.4-0.7c0.9-1.4,2.7-1.9,4.2-1.1l15.6,8.8c1.5,0.8,2,2.7,1.2,4.2L148,149"
								/>
						</g>
						<path class="st62" d="M153.8,141L153.8,141c-1.2,2.1-3.9,2.9-6,1.7l-14.3-8c-2.1-1.2-2.9-3.9-1.7-6l0,0c1.2-2.1,3.9-2.9,6-1.7
							l14.3,8C154.2,136.2,155,138.9,153.8,141z"/>
					</g>
					<g>
						<path class="st63" d="M107.5,40.3c-0.2,0.2-0.2,0.6,0,0.8l9.6,9.1l1.4,10.7L115.7,73l-9.6-10l2.3-2.2c0.2-0.2,0.2-0.6,0-0.8
							s-0.6-0.2-0.8,0l-6.2,6.1L88,51.9c-0.2-0.2-0.6-0.2-0.8,0c-0.2,0.2-0.2,0.6,0,0.8L100.8,67l-1,2.2l-10.7,9.5L80,67.9
							c0-0.1,0-0.1-0.1-0.1c0-0.1-0.1-0.1-0.1-0.1l-6.7-8c-0.1-0.1-0.2-0.2-0.4-0.2s-0.3,0-0.4,0.1L60.6,69.7
							c-0.8,0.7-0.9,1.9-0.3,2.7l4.5,5.7c0.7,0.8,1.9,1,2.8,0.4L79.4,69l8.9,10.6l-26.5,23.6l-3-3.8l8.6-7.4
							c1.3-1.1,1.5-3.1,0.4-4.4L59,76.7c-0.1-0.1-0.2-0.2-0.4-0.2l-5.3-0.6c-0.3,0-0.6,0.2-0.6,0.5c0,0.3,0.2,0.6,0.5,0.6l5,0.6
							l2.5,3.2L51,89.4c-0.6,0.5-0.7,1.4-0.2,2.1l10.2,12.4l-12.2,10.9c-0.2,0.2-0.3,0.6,0,0.8c0.1,0.1,0.3,0.2,0.4,0.2
							c0.1,0,0.3,0,0.4-0.1l20.8-18.5l29.9,10.9l-0.8,4c-0.1,0.3,0.1,0.6,0.5,0.7h0.1c0.3,0,0.5-0.2,0.6-0.5l4.1-20.4
							c0.1-0.3-0.1-0.6-0.5-0.7c-0.3-0.1-0.6,0.1-0.7,0.5l-3.1,15.1L71.3,96.1l3.1-2.7c0.4,0.7,1.5,1.9,3.4,1.9c0.1,0,0.1,0,0.2,0
							s0.2-0.1,0.3-0.1l2.1-1.7c0.2-0.2,0.3-0.6,0.1-0.8c-0.2-0.2-0.6-0.3-0.8-0.1l-1.9,1.7c-1.5,0-2.3-1.2-2.5-1.5l19-17l6.7,7.6
							c0.6,0.7,1.4,1,2.2,1c0.7,0,1.4-0.2,1.9-0.7l2.6-2.2c0.6-0.5,1-1.2,1-2c0-0.8-0.2-1.6-0.8-2.1l-7-7.7l1.1-2.3l3.4-3.4
							l10.1,10.6L113,85.2c-0.1,0.3,0.1,0.6,0.4,0.7h0.1c0.3,0,0.5-0.2,0.6-0.5l5.4-24.4c0-0.1,0-0.1,0-0.2l-1.4-11
							c0-0.1-0.1-0.3-0.2-0.4l-9.7-9.2C108.1,40.1,107.7,40.1,107.5,40.3z M66.9,77.5c-0.4,0.3-0.9,0.2-1.1-0.2l-4.5-5.7
							c-0.3-0.3-0.2-0.8,0.1-1.1l11.3-9.7l6.1,7.2L66.9,77.5z M51.8,90.7c-0.1-0.1-0.1-0.3,0-0.5l9.7-8.6l5.3,6.7
							c0.7,0.9,0.6,2.1-0.3,2.8l-8.6,7.3L51.8,90.7z M107,77.9c0.3,0.4,0.5,0.8,0.5,1.3s-0.2,0.9-0.6,1.2l-2.6,2.2
							c-0.7,0.6-1.8,0.5-2.5-0.2l-6.7-7.6l5-4.5L107,77.9z"/>
						<path class="st63" d="M159.3,100.9l-5.9-0.1l0.1-8.1l4.1,1.7c0.3,0.1,0.6,0,0.8-0.3c0.1-0.3,0-0.6-0.3-0.8l-4.7-1.9
							c-0.1,0-0.1,0-0.2,0l0,0l0,0h-0.4l0,0l-13-0.4c-0.2,0-0.4,0.1-0.5,0.3l-4.4,8c0,0.1-0.1,0.2-0.1,0.3l-0.5,10.1l-2.7,0.3
							l-11.8-6l20.2-42.8l7.7,3.7l4.4,4.8l-10.1,8.3c-0.2,0.2-0.3,0.6-0.1,0.8c0.1,0.1,0.3,0.2,0.5,0.2c0.1,0,0.3,0,0.4-0.1l2.9-2.4
							l6.9,5.8c0.1,0.1,0.2,0.1,0.4,0.1s0.3-0.1,0.4-0.2c0.2-0.2,0.2-0.6-0.1-0.8l-6.7-5.6l2.5-2l7.5,8c0.1,0.1,0.3,0.2,0.4,0.2
							s0.3-0.1,0.4-0.2c0.2-0.2,0.2-0.6,0-0.8l-7.5-8l7.6-6.2c0.2-0.2,0.3-0.6,0.1-0.8c-0.2-0.2-0.6-0.3-0.8-0.1l-3.8,3.1l-4.6-4.9
							c-0.1-0.1-0.1-0.1-0.2-0.1l-7.8-3.7l0.5-1c0.8-1.6,0.3-3.5-1-4.7l-0.7-0.6l0,0l8.5-14.1c0.2-0.3,0.1-0.6-0.2-0.8
							c-0.3-0.2-0.6-0.1-0.8,0.2l-8.4,13.9L127.7,44c-0.4-0.4-1-0.3-1.4,0.1c-0.4,0.4-0.3,1,0.1,1.4l12.6,10.4
							c0.7,0.6,0.9,1.5,0.5,2.4L118.2,103l-0.5,1l-23.3,49.2l0,0l-3.8-3.9c-0.1-0.1-0.1-0.1-0.2-0.2l-7.6-4.2c0.1,0,0.3-0.1,0.4-0.3
							l1.3-2.5v-0.1l5.5-22c0-0.2,0-0.3-0.1-0.4c-0.1-0.1-0.2-0.2-0.4-0.3l-17.6-4.1c-0.3-0.1-0.6,0.1-0.7,0.4
							c-0.1,0.3,0.1,0.6,0.4,0.7l17,4l-5.3,21.4l-1.2,2.5c-0.1,0.1-0.1,0.3,0,0.4l-13.6-7.6l5.2-10.2c0.4-0.8,0.5-1.6,0.2-2.5
							c-0.3-0.8-0.9-1.5-1.7-1.8l-5.3-2.4c-0.3-0.1-0.6,0-0.8,0.3c-0.1,0.3,0,0.6,0.3,0.8l5.3,2.4c0.5,0.2,0.9,0.6,1,1.1
							c0.2,0.5,0.1,1.1-0.1,1.5l-5.2,10.2l-18.6-10.4c-0.5-0.3-1.1-0.1-1.3,0.4c-0.3,0.5-0.1,1.1,0.4,1.3l41.4,23l4.1,4.3l0,0l0,0
							l-7,14.7c-0.2,0.5,0,1.1,0.5,1.3c0.1,0.1,0.3,0.1,0.4,0.1c0.4,0,0.7-0.2,0.9-0.6l6.3-13.3l0,0l26.2,14.5
							c0.1,0.1,0.3,0.1,0.5,0.1c0.3,0,0.7-0.2,0.9-0.5c0.3-0.5,0.1-1.1-0.4-1.3l-26.4-14.6l18-38.1l0,0l7.2,3.6l-10.3,17.6
							c-0.2,0.3-0.1,0.6,0.2,0.8c0.1,0.1,0.2,0.1,0.3,0.1c0.2,0,0.4-0.1,0.5-0.3l4.6-8l7.4,4.3l-5.1,9.3c-0.6,1.1-0.2,2.4,0.8,3.1
							l12.8,8c0.4,0.2,0.8,0.3,1.2,0.3c0.2,0,0.4,0,0.6-0.1c0.6-0.2,1.1-0.6,1.4-1.1l5.2-9.7l6.1,3.5c0.6,0.3,1,0.9,1.2,1.5
							c0.2,0.7,0.1,1.3-0.3,1.9l-5.9,9.4c0,0,0,0.1-0.1,0.1l-2.7,7.9c-0.1,0.3,0.1,0.6,0.4,0.7c0.1,0,0.1,0,0.2,0
							c0.2,0,0.5-0.2,0.6-0.4l2.7-7.8l5.8-9.3c0.5-0.8,0.7-1.8,0.4-2.8c-0.2-1-0.9-1.8-1.7-2.3l-22-12.7l3.7-6.8
							c0.2-0.3,0.1-0.6-0.2-0.8c-0.3-0.2-0.6-0.1-0.8,0.2l-3.7,6.8l-7.4-4.3l5.4-9.2c0.1-0.1,0.1-0.3,0.1-0.5s-0.2-0.3-0.3-0.4
							l-7.7-3.9l0,0l5.5-11.6l11.9,6c0.1,0,0.2,0.1,0.3,0.1c0,0,0,0,0.1,0l3.3-0.3l0,0l21.9,0.8l0,0c0.3,0,0.6-0.2,0.6-0.6
							c0-0.3-0.2-0.6-0.6-0.6l-21.4-0.8l0.5-9.9L140,92l12.3,0.4l-0.1,8.3l-3.8-0.1c-0.3,0-0.6,0.2-0.6,0.6c0,0.3,0.2,0.6,0.6,0.6
							l4.2,0.1h0.5l0,0l6.3,0.1l0,0c0.3,0,0.6-0.3,0.6-0.6C159.9,101.2,159.7,100.9,159.3,100.9z M124.5,136.2l14.9,8.6l-5.2,9.7
							c-0.2,0.3-0.4,0.5-0.7,0.6c-0.3,0.1-0.6,0-0.9-0.1l-12.8-8c-0.5-0.3-0.7-1-0.4-1.5L124.5,136.2z"/>
						<path class="st63" d="M125.7,43.6c0.1,0.1,0.3,0.2,0.4,0.2c0.2,0,0.3-0.1,0.4-0.2c0.2-0.2,0.2-0.6,0-0.8l-14.6-14l4.7-5
							l7.8,6.4c0.2,0.2,0.6,0.2,0.8,0l19.8-20.6c0.2-0.2,0.2-0.6,0-0.8c-0.2-0.2-0.6-0.2-0.8,0l-19.4,20.2l-7.8-6.4
							c-0.2-0.2-0.6-0.2-0.8,0.1l-5.5,5.9c-0.2,0.2-0.2,0.6,0,0.8L125.7,43.6z"/>
						<path class="st63" d="M99.2,11.5L66.7,46.7c-0.2,0.2-0.2,0.6,0,0.8c0.1,0.1,0.3,0.2,0.4,0.2c0.2,0,0.3-0.1,0.4-0.2L100,12.3
							l6.2,5.6c1,0.9,1.1,2.4,0.3,3.4l-2.2,2.6c-0.2,0.2-0.2,0.6,0.1,0.8c0.1,0.1,0.2,0.1,0.4,0.1c0.2,0,0.3-0.1,0.5-0.2l2.2-2.6
							c1.2-1.5,1.1-3.7-0.4-5l-9.3-8.4c-0.2-0.2-0.6-0.2-0.8,0c-0.2,0.2-0.2,0.6,0,0.8L99.2,11.5z"/>
						<path class="st63" d="M60.7,27.4c0.2,0,0.3-0.1,0.4-0.2L77.5,9.5c0.2-0.2,0.2-0.6,0-0.8c-0.2-0.2-0.6-0.2-0.8,0L60.3,26.4
							c-0.2,0.2-0.2,0.6,0,0.8C60.4,27.4,60.5,27.4,60.7,27.4z"/>
						<path class="st63" d="M53.4,45l-4.7,3.1c-0.3,0.2-0.3,0.5-0.2,0.8c0.1,0.2,0.3,0.3,0.5,0.3c0.1,0,0.2,0,0.3-0.1l5.2-3.4
							l4.5-0.8l5.5,9.2c0.5,0.8,0.2,1.9-0.6,2.5l-14.7,9.3c-0.3,0.2-0.4,0.5-0.2,0.8c0.1,0.2,0.3,0.3,0.5,0.3c0.1,0,0.2,0,0.3-0.1
							l14.8-9.1c1.4-0.9,1.8-2.7,1-4l-5.6-9.4l6.9-6.8c0.2-0.2,0.2-0.6,0-0.8l-4-4.2c-0.2-0.2-0.6-0.2-0.8,0c-0.2,0.2-0.2,0.6,0,0.8
							l3.6,3.8l-6.5,6.4c-0.1,0-0.2,0-0.3,0.1c-0.1,0-0.1,0.1-0.2,0.2l-4.2,0.7l-5.8-6.3c-0.2-0.2-0.6-0.3-0.8,0
							c-0.2,0.2-0.3,0.6,0,0.8L53.4,45z"/>
					</g>
					<line class="st64" x1="124.7" y1="29.6" x2="126.8" y2="42.3"/>
					<g>
						
							<rect x="68.9" y="82" transform="matrix(0.7771 -0.6293 0.6293 0.7771 -36.8628 62.8894)" class="st65" width="2.9" height="3"/>
						
							<rect x="74.5" y="82.6" transform="matrix(0.7431 -0.6691 0.6691 0.7431 -36.7891 72.3939)" class="st65" width="2.9" height="3"/>
						
							<rect x="79.3" y="74.2" transform="matrix(0.7431 -0.6691 0.6691 0.7431 -29.4988 73.5584)" class="st65" width="3.6" height="2.1"/>
						<polygon class="st65" points="134.2,110.3 157.3,123.3 157.3,110.8 135.6,109.9 						"/>
						<g>
							<path class="st65" d="M144.5,80l1.1-1.4l7.8,5c0,0,0.6-1.3,0.7-1.2c0.2,0,5.1,2.8,5.1,2.8l-0.8,3.1L144.5,80z"/>
							<polygon class="st65" points="149.8,63.7 151.1,62.4 153.1,64.4 151.8,65.7 							"/>
							<polygon class="st65" points="142,92.9 141.9,98.4 145.6,98.6 145.4,103.4 136.5,103.3 136.2,108.6 158.2,109.6 157.4,103.8 
								148.4,103.6 148.6,98.6 152.6,98.8 152.7,93.1 							"/>
							<polygon class="st65" points="121.8,116.9 123.6,117.9 124.8,116 123.1,115.1 							"/>
							<polygon class="st65" points="129.5,112.8 128,115.6 129.5,116.4 131,113.7 							"/>
							<polygon class="st65" points="69.2,109.4 71.8,112.5 73.3,111.1 70.8,108.2 							"/>
							<polygon class="st65" points="108,81.8 109.1,82.7 111.6,80.5 110.3,79.4 							"/>
							<polygon class="st65" points="137.8,76.4 146,69.3 147.3,70.4 144.1,73 144.7,74.1 140.6,77.6 							"/>
						</g>
					</g>
					<text transform="matrix(1 0 0 1 136.7583 83.981)" class="st66 st67 st68">LOWER</text>
					<text transform="matrix(1 0 0 1 133.6704 87.5669)" class="st66 st67 st68">VAILSBURG</text>
					<text transform="matrix(1 0 0 1 91.562 120.5664)" class="st66 st67 st68">STREET</text>
					<path class="st69" d="M107.4,55.2c0,2.2-3.4,6.1-4.4,7.3c-0.2,0.2-0.4,0.2-0.6,0c-1-1.2-4.4-5.1-4.4-7.3c0-2.6,2.1-4.7,4.7-4.7
						C105.4,50.5,107.4,52.6,107.4,55.2z"/>
					<circle class="st70" cx="102.8" cy="55.2" r="3.6"/>
					<path class="st69" d="M125.7,83.8c0,2.2-3.4,6.1-4.4,7.3c-0.2,0.2-0.4,0.2-0.6,0c-1-1.2-4.4-5.1-4.4-7.3c0-2.6,2.1-4.7,4.7-4.7
						C123.6,79.1,125.7,81.2,125.7,83.8z"/>
					<ellipse class="st70" cx="120.9" cy="83.9" rx="3.6" ry="3.6"/>
					<path class="st69" d="M90.8,78.5c0,2.2-3.4,6.1-4.4,7.3c-0.2,0.2-0.4,0.2-0.6,0c-1-1.2-4.4-5.1-4.4-7.3c0-2.6,2.1-4.7,4.7-4.7
						C88.7,73.8,90.8,75.9,90.8,78.5z"/>
					<ellipse class="st70" cx="86.1" cy="78.5" rx="3.6" ry="3.6"/>
					<g>
						<path class="st69" d="M99.7,108.5c0,2.2-3.4,6.1-4.4,7.3c-0.2,0.2-0.4,0.2-0.6,0c-1-1.2-4.4-5.1-4.4-7.3
							c0-2.6,2.1-4.7,4.7-4.7C97.6,103.8,99.7,105.9,99.7,108.5z"/>
						<ellipse class="st70" cx="95" cy="108.5" rx="3.6" ry="3.6"/>
					</g>
					<g>
						<path class="st69" d="M130.4,115.2c0,2.2-3.4,6.1-4.4,7.3c-0.2,0.2-0.4,0.2-0.6,0c-1-1.2-4.4-5.1-4.4-7.3
							c0-2.6,2.1-4.7,4.7-4.7C128.3,110.5,130.4,112.6,130.4,115.2z"/>
						<ellipse class="st70" cx="125.7" cy="115.2" rx="3.6" ry="3.6"/>
					</g>
					<g>
						<g>
							<ellipse class="st71" cx="111.7" cy="98.9" rx="2.7" ry="2.7"/>
							<circle class="st72" cx="111.6" cy="98.8" r="1.9"/>
						</g>
						<circle class="st73" cx="111.6" cy="98.8" r="0.9"/>
					</g>
					<g>
						<circle class="st70" cx="80.7" cy="125" r="4"/>
						<path class="st73" d="M81,126.8l-0.7-1.1c0,0,0,0-0.1,0l-1.3,0.1c-0.1,0-0.1-0.1-0.1-0.2l2.6-2.4c0.1-0.1,0.2,0,0.1,0.1
							L81,126.8C81.2,126.9,81,126.9,81,126.8z"/>
					</g>
					<text transform="matrix(1 0 0 1 86.085 41.1104)" class="st66 st67 st68">UNION</text>
					<text transform="matrix(0.2092 -0.9779 0.9779 0.2092 115.3377 71.2304)" class="st74 st67 st75">street name</text>
					<text transform="matrix(0.4306 -0.9025 0.9025 0.4306 124.2788 103.8681)" class="st74 st67 st76">street name</text>
					<text transform="matrix(0.9403 0.3404 -0.3404 0.9403 76.2785 100.9961)" class="st74 st67 st75">street name</text>
					<text transform="matrix(0.433 -0.9014 0.9014 0.433 102.2101 130.3771)" class="st74 st67 st77">street name</text>
					<text transform="matrix(0.7587 0.6515 -0.6515 0.7587 72.8008 43.302)" class="st74 st67 st78">street name</text>
				</g>
			</g>
		</g>
	</g>
</g>
</svg>
