<?xml version="1.0" encoding="utf-8"?>
<!-- Generator: Adobe Illustrator 25.3.0, SVG Export Plug-In . SVG Version: 6.00 Build 0)  -->
<svg version="1.1" id="Layer_1" xmlns="http://www.w3.org/2000/svg" xmlns:xlink="http://www.w3.org/1999/xlink" x="0px" y="0px"
	 viewBox="0 0 380.4 112" style="enable-background:new 0 0 380.4 112;" xml:space="preserve">
<style type="text/css">
	.st0{fill:#004367;}
	.st1{opacity:2.000000e-02;}
	.st2{fill:url(#SVGID_1_);}
	.st3{fill:url(#SVGID_2_);}
	.st4{fill:url(#SVGID_3_);}
	.st5{fill:url(#SVGID_4_);}
	.st6{fill:url(#SVGID_5_);}
	.st7{fill:url(#SVGID_6_);}
	.st8{fill:url(#SVGID_7_);}
	.st9{fill:url(#SVGID_8_);}
	.st10{fill:url(#SVGID_9_);}
	.st11{fill:url(#SVGID_10_);}
	.st12{fill:url(#SVGID_11_);}
	.st13{fill:url(#SVGID_12_);}
	.st14{fill:url(#SVGID_13_);}
	.st15{fill:url(#SVGID_14_);}
	.st16{fill:url(#SVGID_15_);}
	.st17{fill:url(#SVGID_16_);}
	.st18{fill:url(#SVGID_17_);}
	.st19{fill:url(#SVGID_18_);}
	.st20{fill:url(#SVGID_19_);}
	.st21{fill:url(#SVGID_20_);}
	.st22{fill:url(#SVGID_21_);}
	.st23{fill:url(#SVGID_22_);}
	.st24{fill:url(#SVGID_23_);}
	.st25{fill:url(#SVGID_24_);}
	.st26{fill:url(#SVGID_25_);}
	.st27{fill:url(#SVGID_26_);}
	.st28{fill:url(#SVGID_27_);}
	.st29{fill:url(#SVGID_28_);}
	.st30{fill:url(#SVGID_29_);}
	.st31{fill:url(#SVGID_30_);}
	.st32{fill:url(#SVGID_31_);}
	.st33{fill:url(#SVGID_32_);}
	.st34{fill:url(#SVGID_33_);}
	.st35{fill:url(#SVGID_34_);}
	.st36{fill:url(#SVGID_35_);}
	.st37{fill:url(#SVGID_36_);}
	.st38{fill:url(#SVGID_37_);}
	.st39{fill:url(#SVGID_38_);}
	.st40{fill:url(#SVGID_39_);}
	.st41{fill:url(#SVGID_40_);}
	.st42{fill:url(#SVGID_41_);}
	.st43{fill:url(#SVGID_42_);}
	.st44{fill:url(#SVGID_43_);}
	.st45{fill:url(#SVGID_44_);}
	.st46{fill:url(#SVGID_45_);}
	.st47{fill:url(#SVGID_46_);}
	.st48{fill:url(#SVGID_47_);}
	.st49{fill:url(#SVGID_48_);}
	.st50{fill:url(#SVGID_49_);}
	.st51{fill:url(#SVGID_50_);}
	.st52{fill:url(#SVGID_51_);}
	.st53{fill:url(#SVGID_52_);}
	.st54{fill:url(#SVGID_53_);}
	.st55{fill:url(#SVGID_54_);}
	.st56{fill:url(#SVGID_55_);}
	.st57{fill:url(#SVGID_56_);}
	.st58{fill:url(#SVGID_57_);}
	.st59{fill:url(#SVGID_58_);}
	.st60{fill:url(#SVGID_59_);}
	.st61{fill:url(#SVGID_60_);}
	.st62{fill:url(#SVGID_61_);}
	.st63{fill:url(#SVGID_62_);}
	.st64{fill:url(#SVGID_63_);}
	.st65{fill:url(#SVGID_64_);}
	.st66{fill:url(#SVGID_65_);}
	.st67{fill:url(#SVGID_66_);}
	.st68{fill:url(#SVGID_67_);}
	.st69{fill:url(#SVGID_68_);}
	.st70{fill:url(#SVGID_69_);}
	.st71{fill:url(#SVGID_70_);}
	.st72{fill:url(#SVGID_71_);}
	.st73{fill:url(#SVGID_72_);}
</style>
<path class="st0" d="M366,112.3H14.4c-8,0-14.4-6.4-14.4-14.4V14.4C0,6.4,6.4,0,14.4,0H366c8,0,14.4,6.4,14.4,14.4v83.5
	C380.4,105.9,374,112.3,366,112.3z"/>
<path class="st0" d="M541.9,322.6H190.3c-8,0-14.4-6.4-14.4-14.4v-83.5c0-8,6.4-14.4,14.4-14.4h351.6c8,0,14.4,6.4,14.4,14.4v83.5
	C556.3,316.1,549.8,322.6,541.9,322.6z"/>
<g class="st1">
	
		<linearGradient id="SVGID_1_" gradientUnits="userSpaceOnUse" x1="8916.2861" y1="4822.9067" x2="8913.877" y2="4875.5742" gradientTransform="matrix(6.123234e-17 -1 1 6.123234e-17 -4676.2578 9032.9697)">
		<stop  offset="0" style="stop-color:#404040"/>
		<stop  offset="5.762937e-03" style="stop-color:#454545"/>
		<stop  offset="5.310770e-02" style="stop-color:#696969"/>
		<stop  offset="0.1061" style="stop-color:#898989"/>
		<stop  offset="0.1649" style="stop-color:#A5A5A5"/>
		<stop  offset="0.2314" style="stop-color:#BBBBBB"/>
		<stop  offset="0.309" style="stop-color:#CCCCCC"/>
		<stop  offset="0.4049" style="stop-color:#D7D7D7"/>
		<stop  offset="0.5395" style="stop-color:#DEDEDE"/>
		<stop  offset="0.9133" style="stop-color:#E0E0E0"/>
	</linearGradient>
	<polygon class="st2" points="186.8,99.2 165.1,99.2 154.2,118 165.1,136.9 186.8,136.9 197.7,118 	"/>
	
		<linearGradient id="SVGID_2_" gradientUnits="userSpaceOnUse" x1="8916.2861" y1="4909.7773" x2="8913.877" y2="4962.4448" gradientTransform="matrix(6.123234e-17 -1 1 6.123234e-17 -4676.2578 9032.9697)">
		<stop  offset="0" style="stop-color:#404040"/>
		<stop  offset="2.450494e-02" style="stop-color:#575757"/>
		<stop  offset="7.038973e-02" style="stop-color:#7B7B7B"/>
		<stop  offset="0.1221" style="stop-color:#9B9B9B"/>
		<stop  offset="0.1792" style="stop-color:#B7B7B7"/>
		<stop  offset="0.2437" style="stop-color:#CDCDCD"/>
		<stop  offset="0.319" style="stop-color:#DEDEDE"/>
		<stop  offset="0.4122" style="stop-color:#E9E9E9"/>
		<stop  offset="0.5428" style="stop-color:#F0F0F0"/>
		<stop  offset="0.9056" style="stop-color:#F2F2F2"/>
	</linearGradient>
	<polygon class="st3" points="273.7,99.2 252,99.2 241.1,118 252,136.9 273.7,136.9 284.5,118 	"/>
	
		<linearGradient id="SVGID_3_" gradientUnits="userSpaceOnUse" x1="8916.2861" y1="4888.0596" x2="8913.877" y2="4940.7271" gradientTransform="matrix(6.123234e-17 -1 1 6.123234e-17 -4676.2578 9032.9697)">
		<stop  offset="0" style="stop-color:#404040"/>
		<stop  offset="2.450494e-02" style="stop-color:#575757"/>
		<stop  offset="7.038973e-02" style="stop-color:#7B7B7B"/>
		<stop  offset="0.1221" style="stop-color:#9B9B9B"/>
		<stop  offset="0.1792" style="stop-color:#B7B7B7"/>
		<stop  offset="0.2437" style="stop-color:#CDCDCD"/>
		<stop  offset="0.319" style="stop-color:#DEDEDE"/>
		<stop  offset="0.4122" style="stop-color:#E9E9E9"/>
		<stop  offset="0.5428" style="stop-color:#F0F0F0"/>
		<stop  offset="0.9056" style="stop-color:#F2F2F2"/>
	</linearGradient>
	<polygon class="st4" points="252,99.2 230.3,99.2 219.4,118 230.3,136.9 252,136.9 262.8,118 	"/>
	
		<linearGradient id="SVGID_4_" gradientUnits="userSpaceOnUse" x1="8916.2861" y1="4866.3423" x2="8913.877" y2="4919.0098" gradientTransform="matrix(6.123234e-17 -1 1 6.123234e-17 -4676.2578 9032.9697)">
		<stop  offset="0" style="stop-color:#404040"/>
		<stop  offset="2.450494e-02" style="stop-color:#575757"/>
		<stop  offset="7.038973e-02" style="stop-color:#7B7B7B"/>
		<stop  offset="0.1221" style="stop-color:#9B9B9B"/>
		<stop  offset="0.1792" style="stop-color:#B7B7B7"/>
		<stop  offset="0.2437" style="stop-color:#CDCDCD"/>
		<stop  offset="0.319" style="stop-color:#DEDEDE"/>
		<stop  offset="0.4122" style="stop-color:#E9E9E9"/>
		<stop  offset="0.5428" style="stop-color:#F0F0F0"/>
		<stop  offset="0.9056" style="stop-color:#F2F2F2"/>
	</linearGradient>
	<polygon class="st5" points="230.3,99.2 208.5,99.2 197.7,118 208.5,136.9 230.3,136.9 241.1,118 	"/>
	
		<linearGradient id="SVGID_5_" gradientUnits="userSpaceOnUse" x1="8916.2861" y1="4931.4951" x2="8913.877" y2="4984.1626" gradientTransform="matrix(6.123234e-17 -1 1 6.123234e-17 -4676.2578 9032.9697)">
		<stop  offset="0" style="stop-color:#404040"/>
		<stop  offset="2.450494e-02" style="stop-color:#575757"/>
		<stop  offset="7.038973e-02" style="stop-color:#7B7B7B"/>
		<stop  offset="0.1221" style="stop-color:#9B9B9B"/>
		<stop  offset="0.1792" style="stop-color:#B7B7B7"/>
		<stop  offset="0.2437" style="stop-color:#CDCDCD"/>
		<stop  offset="0.319" style="stop-color:#DEDEDE"/>
		<stop  offset="0.4122" style="stop-color:#E9E9E9"/>
		<stop  offset="0.5428" style="stop-color:#F0F0F0"/>
		<stop  offset="0.9056" style="stop-color:#F2F2F2"/>
	</linearGradient>
	<polygon class="st6" points="295.4,99.2 273.7,99.2 262.8,118 273.7,136.9 295.4,136.9 306.3,118 	"/>
	
		<linearGradient id="SVGID_6_" gradientUnits="userSpaceOnUse" x1="8916.2861" y1="4844.6245" x2="8913.877" y2="4897.292" gradientTransform="matrix(6.123234e-17 -1 1 6.123234e-17 -4676.2578 9032.9697)">
		<stop  offset="0" style="stop-color:#404040"/>
		<stop  offset="2.450494e-02" style="stop-color:#575757"/>
		<stop  offset="7.038973e-02" style="stop-color:#7B7B7B"/>
		<stop  offset="0.1221" style="stop-color:#9B9B9B"/>
		<stop  offset="0.1792" style="stop-color:#B7B7B7"/>
		<stop  offset="0.2437" style="stop-color:#CDCDCD"/>
		<stop  offset="0.319" style="stop-color:#DEDEDE"/>
		<stop  offset="0.4122" style="stop-color:#E9E9E9"/>
		<stop  offset="0.5428" style="stop-color:#F0F0F0"/>
		<stop  offset="0.9056" style="stop-color:#F2F2F2"/>
	</linearGradient>
	<polygon class="st7" points="208.5,99.2 186.8,99.2 176,118 186.8,136.9 208.5,136.9 219.4,118 	"/>
	
		<linearGradient id="SVGID_7_" gradientUnits="userSpaceOnUse" x1="8897.0381" y1="4807.73" x2="8915.1406" y2="4830.7451" gradientTransform="matrix(6.123234e-17 -1 1 6.123234e-17 -4676.2578 9032.9697)">
		<stop  offset="0" style="stop-color:#404040"/>
		<stop  offset="5.473560e-03" style="stop-color:#444444"/>
		<stop  offset="6.111755e-02" style="stop-color:#6B6B6B"/>
		<stop  offset="0.1222" style="stop-color:#8C8C8C"/>
		<stop  offset="0.1894" style="stop-color:#A9A9A9"/>
		<stop  offset="0.2641" style="stop-color:#C0C0C0"/>
		<stop  offset="0.3495" style="stop-color:#D2D2D2"/>
		<stop  offset="0.452" style="stop-color:#DFDFDF"/>
		<stop  offset="0.5888" style="stop-color:#E6E6E6"/>
		<stop  offset="0.9024" style="stop-color:#E8E8E8"/>
	</linearGradient>
	<polygon class="st8" points="165.1,99.2 143.4,99.2 132.5,118 143.4,136.9 165.1,136.9 176,118 	"/>
	
		<linearGradient id="SVGID_8_" gradientUnits="userSpaceOnUse" x1="8991.6445" y1="4931.4951" x2="8989.2354" y2="4984.1626" gradientTransform="matrix(6.123234e-17 -1 1 6.123234e-17 -4676.2578 9032.9697)">
		<stop  offset="0" style="stop-color:#404040"/>
		<stop  offset="5.762937e-03" style="stop-color:#454545"/>
		<stop  offset="5.310770e-02" style="stop-color:#696969"/>
		<stop  offset="0.1061" style="stop-color:#898989"/>
		<stop  offset="0.1649" style="stop-color:#A5A5A5"/>
		<stop  offset="0.2314" style="stop-color:#BBBBBB"/>
		<stop  offset="0.309" style="stop-color:#CCCCCC"/>
		<stop  offset="0.4049" style="stop-color:#D7D7D7"/>
		<stop  offset="0.5395" style="stop-color:#DEDEDE"/>
		<stop  offset="0.9133" style="stop-color:#E0E0E0"/>
	</linearGradient>
	<polygon class="st9" points="295.4,23.8 273.7,23.8 262.8,42.7 273.7,61.5 295.4,61.5 306.3,42.7 	"/>
	
		<linearGradient id="SVGID_9_" gradientUnits="userSpaceOnUse" x1="8953.9648" y1="4931.4951" x2="8951.5557" y2="4984.1626" gradientTransform="matrix(6.123234e-17 -1 1 6.123234e-17 -4676.2578 9032.9697)">
		<stop  offset="0" style="stop-color:#404040"/>
		<stop  offset="2.450494e-02" style="stop-color:#575757"/>
		<stop  offset="7.038973e-02" style="stop-color:#7B7B7B"/>
		<stop  offset="0.1221" style="stop-color:#9B9B9B"/>
		<stop  offset="0.1792" style="stop-color:#B7B7B7"/>
		<stop  offset="0.2437" style="stop-color:#CDCDCD"/>
		<stop  offset="0.319" style="stop-color:#DEDEDE"/>
		<stop  offset="0.4122" style="stop-color:#E9E9E9"/>
		<stop  offset="0.5428" style="stop-color:#F0F0F0"/>
		<stop  offset="0.9056" style="stop-color:#F2F2F2"/>
	</linearGradient>
	<polygon class="st10" points="295.4,61.5 273.7,61.5 262.8,80.3 273.7,99.2 295.4,99.2 306.3,80.3 	"/>
	
		<linearGradient id="SVGID_10_" gradientUnits="userSpaceOnUse" x1="8953.9648" y1="4909.7773" x2="8951.5557" y2="4962.4448" gradientTransform="matrix(6.123234e-17 -1 1 6.123234e-17 -4676.2578 9032.9697)">
		<stop  offset="0" style="stop-color:#404040"/>
		<stop  offset="2.450494e-02" style="stop-color:#575757"/>
		<stop  offset="7.038973e-02" style="stop-color:#7B7B7B"/>
		<stop  offset="0.1221" style="stop-color:#9B9B9B"/>
		<stop  offset="0.1792" style="stop-color:#B7B7B7"/>
		<stop  offset="0.2437" style="stop-color:#CDCDCD"/>
		<stop  offset="0.319" style="stop-color:#DEDEDE"/>
		<stop  offset="0.4122" style="stop-color:#E9E9E9"/>
		<stop  offset="0.5428" style="stop-color:#F0F0F0"/>
		<stop  offset="0.9056" style="stop-color:#F2F2F2"/>
	</linearGradient>
	<polygon class="st11" points="273.7,61.5 252,61.5 241.1,80.3 252,99.2 273.7,99.2 284.5,80.3 	"/>
	
		<linearGradient id="SVGID_11_" gradientUnits="userSpaceOnUse" x1="8953.9648" y1="4888.0596" x2="8951.5557" y2="4940.7271" gradientTransform="matrix(6.123234e-17 -1 1 6.123234e-17 -4676.2578 9032.9697)">
		<stop  offset="0" style="stop-color:#404040"/>
		<stop  offset="2.450494e-02" style="stop-color:#575757"/>
		<stop  offset="7.038973e-02" style="stop-color:#7B7B7B"/>
		<stop  offset="0.1221" style="stop-color:#9B9B9B"/>
		<stop  offset="0.1792" style="stop-color:#B7B7B7"/>
		<stop  offset="0.2437" style="stop-color:#CDCDCD"/>
		<stop  offset="0.319" style="stop-color:#DEDEDE"/>
		<stop  offset="0.4122" style="stop-color:#E9E9E9"/>
		<stop  offset="0.5428" style="stop-color:#F0F0F0"/>
		<stop  offset="0.9056" style="stop-color:#F2F2F2"/>
	</linearGradient>
	<polygon class="st12" points="252,61.5 230.3,61.5 219.4,80.3 230.3,99.2 252,99.2 262.8,80.3 	"/>
	
		<linearGradient id="SVGID_12_" gradientUnits="userSpaceOnUse" x1="9029.3232" y1="4888.0596" x2="9026.9141" y2="4940.7271" gradientTransform="matrix(6.123234e-17 -1 1 6.123234e-17 -4676.2578 9032.9697)">
		<stop  offset="0" style="stop-color:#404040"/>
		<stop  offset="2.450494e-02" style="stop-color:#575757"/>
		<stop  offset="7.038973e-02" style="stop-color:#7B7B7B"/>
		<stop  offset="0.1221" style="stop-color:#9B9B9B"/>
		<stop  offset="0.1792" style="stop-color:#B7B7B7"/>
		<stop  offset="0.2437" style="stop-color:#CDCDCD"/>
		<stop  offset="0.319" style="stop-color:#DEDEDE"/>
		<stop  offset="0.4122" style="stop-color:#E9E9E9"/>
		<stop  offset="0.5428" style="stop-color:#F0F0F0"/>
		<stop  offset="0.9056" style="stop-color:#F2F2F2"/>
	</linearGradient>
	<polygon class="st13" points="252,-13.9 230.3,-13.9 219.4,5 230.3,23.8 252,23.8 262.8,5 	"/>
	
		<linearGradient id="SVGID_13_" gradientUnits="userSpaceOnUse" x1="9029.3232" y1="4866.3423" x2="9026.9141" y2="4919.0098" gradientTransform="matrix(6.123234e-17 -1 1 6.123234e-17 -4676.2578 9032.9697)">
		<stop  offset="0" style="stop-color:#404040"/>
		<stop  offset="2.450494e-02" style="stop-color:#575757"/>
		<stop  offset="7.038973e-02" style="stop-color:#7B7B7B"/>
		<stop  offset="0.1221" style="stop-color:#9B9B9B"/>
		<stop  offset="0.1792" style="stop-color:#B7B7B7"/>
		<stop  offset="0.2437" style="stop-color:#CDCDCD"/>
		<stop  offset="0.319" style="stop-color:#DEDEDE"/>
		<stop  offset="0.4122" style="stop-color:#E9E9E9"/>
		<stop  offset="0.5428" style="stop-color:#F0F0F0"/>
		<stop  offset="0.9056" style="stop-color:#F2F2F2"/>
	</linearGradient>
	<polygon class="st14" points="230.3,-13.9 208.5,-13.9 197.7,5 208.5,23.8 230.3,23.8 241.1,5 	"/>
	
		<linearGradient id="SVGID_14_" gradientUnits="userSpaceOnUse" x1="8972.3965" y1="4916.3179" x2="8990.498" y2="4939.333" gradientTransform="matrix(6.123234e-17 -1 1 6.123234e-17 -4676.2578 9032.9697)">
		<stop  offset="0" style="stop-color:#404040"/>
		<stop  offset="5.473560e-03" style="stop-color:#444444"/>
		<stop  offset="6.111755e-02" style="stop-color:#6B6B6B"/>
		<stop  offset="0.1222" style="stop-color:#8C8C8C"/>
		<stop  offset="0.1894" style="stop-color:#A9A9A9"/>
		<stop  offset="0.2641" style="stop-color:#C0C0C0"/>
		<stop  offset="0.3495" style="stop-color:#D2D2D2"/>
		<stop  offset="0.452" style="stop-color:#DFDFDF"/>
		<stop  offset="0.5888" style="stop-color:#E6E6E6"/>
		<stop  offset="0.9024" style="stop-color:#E8E8E8"/>
	</linearGradient>
	<polygon class="st15" points="273.7,23.8 252,23.8 241.1,42.7 252,61.5 273.7,61.5 284.5,42.7 	"/>
	
		<linearGradient id="SVGID_15_" gradientUnits="userSpaceOnUse" x1="8953.9648" y1="4844.6245" x2="8951.5557" y2="4897.292" gradientTransform="matrix(6.123234e-17 -1 1 6.123234e-17 -4676.2578 9032.9697)">
		<stop  offset="0" style="stop-color:#404040"/>
		<stop  offset="2.450494e-02" style="stop-color:#575757"/>
		<stop  offset="7.038973e-02" style="stop-color:#7B7B7B"/>
		<stop  offset="0.1221" style="stop-color:#9B9B9B"/>
		<stop  offset="0.1792" style="stop-color:#B7B7B7"/>
		<stop  offset="0.2437" style="stop-color:#CDCDCD"/>
		<stop  offset="0.319" style="stop-color:#DEDEDE"/>
		<stop  offset="0.4122" style="stop-color:#E9E9E9"/>
		<stop  offset="0.5428" style="stop-color:#F0F0F0"/>
		<stop  offset="0.9056" style="stop-color:#F2F2F2"/>
	</linearGradient>
	<polygon class="st16" points="208.5,61.5 186.8,61.5 176,80.3 186.8,99.2 208.5,99.2 219.4,80.3 	"/>
	
		<linearGradient id="SVGID_16_" gradientUnits="userSpaceOnUse" x1="9029.3232" y1="4931.4951" x2="9026.9141" y2="4984.1626" gradientTransform="matrix(6.123234e-17 -1 1 6.123234e-17 -4676.2578 9032.9697)">
		<stop  offset="0" style="stop-color:#404040"/>
		<stop  offset="2.450494e-02" style="stop-color:#575757"/>
		<stop  offset="7.038973e-02" style="stop-color:#7B7B7B"/>
		<stop  offset="0.1221" style="stop-color:#9B9B9B"/>
		<stop  offset="0.1792" style="stop-color:#B7B7B7"/>
		<stop  offset="0.2437" style="stop-color:#CDCDCD"/>
		<stop  offset="0.319" style="stop-color:#DEDEDE"/>
		<stop  offset="0.4122" style="stop-color:#E9E9E9"/>
		<stop  offset="0.5428" style="stop-color:#F0F0F0"/>
		<stop  offset="0.9056" style="stop-color:#F2F2F2"/>
	</linearGradient>
	<polygon class="st17" points="295.4,-13.9 273.7,-13.9 262.8,5 273.7,23.8 295.4,23.8 306.3,5 	"/>
	
		<linearGradient id="SVGID_17_" gradientUnits="userSpaceOnUse" x1="8953.9648" y1="4866.3423" x2="8951.5557" y2="4919.0098" gradientTransform="matrix(6.123234e-17 -1 1 6.123234e-17 -4676.2578 9032.9697)">
		<stop  offset="0" style="stop-color:#404040"/>
		<stop  offset="2.450494e-02" style="stop-color:#575757"/>
		<stop  offset="7.038973e-02" style="stop-color:#7B7B7B"/>
		<stop  offset="0.1221" style="stop-color:#9B9B9B"/>
		<stop  offset="0.1792" style="stop-color:#B7B7B7"/>
		<stop  offset="0.2437" style="stop-color:#CDCDCD"/>
		<stop  offset="0.319" style="stop-color:#DEDEDE"/>
		<stop  offset="0.4122" style="stop-color:#E9E9E9"/>
		<stop  offset="0.5428" style="stop-color:#F0F0F0"/>
		<stop  offset="0.9056" style="stop-color:#F2F2F2"/>
	</linearGradient>
	<polygon class="st18" points="230.3,61.5 208.5,61.5 197.7,80.3 208.5,99.2 230.3,99.2 241.1,80.3 	"/>
	
		<linearGradient id="SVGID_18_" gradientUnits="userSpaceOnUse" x1="8972.3965" y1="4894.6006" x2="8990.498" y2="4917.6152" gradientTransform="matrix(6.123234e-17 -1 1 6.123234e-17 -4676.2578 9032.9697)">
		<stop  offset="0" style="stop-color:#404040"/>
		<stop  offset="5.473560e-03" style="stop-color:#444444"/>
		<stop  offset="6.111755e-02" style="stop-color:#6B6B6B"/>
		<stop  offset="0.1222" style="stop-color:#8C8C8C"/>
		<stop  offset="0.1894" style="stop-color:#A9A9A9"/>
		<stop  offset="0.2641" style="stop-color:#C0C0C0"/>
		<stop  offset="0.3495" style="stop-color:#D2D2D2"/>
		<stop  offset="0.452" style="stop-color:#DFDFDF"/>
		<stop  offset="0.5888" style="stop-color:#E6E6E6"/>
		<stop  offset="0.9024" style="stop-color:#E8E8E8"/>
	</linearGradient>
	<polygon class="st19" points="252,23.8 230.3,23.8 219.4,42.7 230.3,61.5 252,61.5 262.8,42.7 	"/>
	
		<linearGradient id="SVGID_19_" gradientUnits="userSpaceOnUse" x1="8991.6445" y1="4866.3423" x2="8989.2354" y2="4919.0098" gradientTransform="matrix(6.123234e-17 -1 1 6.123234e-17 -4676.2578 9032.9697)">
		<stop  offset="0" style="stop-color:#404040"/>
		<stop  offset="5.762937e-03" style="stop-color:#454545"/>
		<stop  offset="5.310770e-02" style="stop-color:#696969"/>
		<stop  offset="0.1061" style="stop-color:#898989"/>
		<stop  offset="0.1649" style="stop-color:#A5A5A5"/>
		<stop  offset="0.2314" style="stop-color:#BBBBBB"/>
		<stop  offset="0.309" style="stop-color:#CCCCCC"/>
		<stop  offset="0.4049" style="stop-color:#D7D7D7"/>
		<stop  offset="0.5395" style="stop-color:#DEDEDE"/>
		<stop  offset="0.9133" style="stop-color:#E0E0E0"/>
	</linearGradient>
	<polygon class="st20" points="230.3,23.8 208.5,23.8 197.7,42.7 208.5,61.5 230.3,61.5 241.1,42.7 	"/>
	
		<linearGradient id="SVGID_20_" gradientUnits="userSpaceOnUse" x1="8991.6445" y1="4844.6245" x2="8989.2354" y2="4897.292" gradientTransform="matrix(6.123234e-17 -1 1 6.123234e-17 -4676.2578 9032.9697)">
		<stop  offset="0" style="stop-color:#404040"/>
		<stop  offset="2.450494e-02" style="stop-color:#575757"/>
		<stop  offset="7.038973e-02" style="stop-color:#7B7B7B"/>
		<stop  offset="0.1221" style="stop-color:#9B9B9B"/>
		<stop  offset="0.1792" style="stop-color:#B7B7B7"/>
		<stop  offset="0.2437" style="stop-color:#CDCDCD"/>
		<stop  offset="0.319" style="stop-color:#DEDEDE"/>
		<stop  offset="0.4122" style="stop-color:#E9E9E9"/>
		<stop  offset="0.5428" style="stop-color:#F0F0F0"/>
		<stop  offset="0.9056" style="stop-color:#F2F2F2"/>
	</linearGradient>
	<polygon class="st21" points="208.5,23.8 186.8,23.8 176,42.7 186.8,61.5 208.5,61.5 219.4,42.7 	"/>
	
		<linearGradient id="SVGID_21_" gradientUnits="userSpaceOnUse" x1="9029.3232" y1="4909.7773" x2="9026.9141" y2="4962.4448" gradientTransform="matrix(6.123234e-17 -1 1 6.123234e-17 -4676.2578 9032.9697)">
		<stop  offset="0" style="stop-color:#404040"/>
		<stop  offset="5.762937e-03" style="stop-color:#454545"/>
		<stop  offset="5.310770e-02" style="stop-color:#696969"/>
		<stop  offset="0.1061" style="stop-color:#898989"/>
		<stop  offset="0.1649" style="stop-color:#A5A5A5"/>
		<stop  offset="0.2314" style="stop-color:#BBBBBB"/>
		<stop  offset="0.309" style="stop-color:#CCCCCC"/>
		<stop  offset="0.4049" style="stop-color:#D7D7D7"/>
		<stop  offset="0.5395" style="stop-color:#DEDEDE"/>
		<stop  offset="0.9133" style="stop-color:#E0E0E0"/>
	</linearGradient>
	<polygon class="st22" points="273.7,-13.9 252,-13.9 241.1,5 252,23.8 273.7,23.8 284.5,5 	"/>
	
		<linearGradient id="SVGID_22_" gradientUnits="userSpaceOnUse" x1="9052.3682" y1="4848.9092" x2="9012.7998" y2="4889.5127" gradientTransform="matrix(6.123234e-17 -1 1 6.123234e-17 -4676.2578 9032.9697)">
		<stop  offset="0" style="stop-color:#404040"/>
		<stop  offset="4.824975e-02" style="stop-color:#5E5E5E"/>
		<stop  offset="0.1144" style="stop-color:#808080"/>
		<stop  offset="0.1879" style="stop-color:#9D9D9D"/>
		<stop  offset="0.2689" style="stop-color:#B5B5B5"/>
		<stop  offset="0.3606" style="stop-color:#C8C8C8"/>
		<stop  offset="0.4695" style="stop-color:#D4D4D4"/>
		<stop  offset="0.612" style="stop-color:#DCDCDC"/>
		<stop  offset="0.9165" style="stop-color:#DEDEDE"/>
	</linearGradient>
	<polygon class="st23" points="208.5,-13.9 186.8,-13.9 176,5 186.8,23.8 208.5,23.8 219.4,5 	"/>
	
		<linearGradient id="SVGID_23_" gradientUnits="userSpaceOnUse" x1="8916.2861" y1="4670.998" x2="8913.877" y2="4723.6655" gradientTransform="matrix(6.123234e-17 -1 1 6.123234e-17 -4676.2578 9032.9697)">
		<stop  offset="0" style="stop-color:#404040"/>
		<stop  offset="2.450494e-02" style="stop-color:#575757"/>
		<stop  offset="7.038973e-02" style="stop-color:#7B7B7B"/>
		<stop  offset="0.1221" style="stop-color:#9B9B9B"/>
		<stop  offset="0.1792" style="stop-color:#B7B7B7"/>
		<stop  offset="0.2437" style="stop-color:#CDCDCD"/>
		<stop  offset="0.319" style="stop-color:#DEDEDE"/>
		<stop  offset="0.4122" style="stop-color:#E9E9E9"/>
		<stop  offset="0.5428" style="stop-color:#F0F0F0"/>
		<stop  offset="0.9056" style="stop-color:#F2F2F2"/>
	</linearGradient>
	<polygon class="st24" points="34.9,99.2 13.2,99.2 2.3,118 13.2,136.9 34.9,136.9 45.8,118 	"/>
	
		<linearGradient id="SVGID_24_" gradientUnits="userSpaceOnUse" x1="8916.2861" y1="4649.2803" x2="8913.877" y2="4701.9478" gradientTransform="matrix(6.123234e-17 -1 1 6.123234e-17 -4676.2578 9032.9697)">
		<stop  offset="0" style="stop-color:#404040"/>
		<stop  offset="2.450494e-02" style="stop-color:#575757"/>
		<stop  offset="7.038973e-02" style="stop-color:#7B7B7B"/>
		<stop  offset="0.1221" style="stop-color:#9B9B9B"/>
		<stop  offset="0.1792" style="stop-color:#B7B7B7"/>
		<stop  offset="0.2437" style="stop-color:#CDCDCD"/>
		<stop  offset="0.319" style="stop-color:#DEDEDE"/>
		<stop  offset="0.4122" style="stop-color:#E9E9E9"/>
		<stop  offset="0.5428" style="stop-color:#F0F0F0"/>
		<stop  offset="0.9056" style="stop-color:#F2F2F2"/>
	</linearGradient>
	<polygon class="st25" points="13.2,99.2 -8.5,99.2 -19.4,118 -8.5,136.9 13.2,136.9 24,118 	"/>
	
		<linearGradient id="SVGID_25_" gradientUnits="userSpaceOnUse" x1="8953.9648" y1="4670.998" x2="8951.5557" y2="4723.6655" gradientTransform="matrix(6.123234e-17 -1 1 6.123234e-17 -4676.2578 9032.9697)">
		<stop  offset="0" style="stop-color:#404040"/>
		<stop  offset="2.450494e-02" style="stop-color:#575757"/>
		<stop  offset="7.038973e-02" style="stop-color:#7B7B7B"/>
		<stop  offset="0.1221" style="stop-color:#9B9B9B"/>
		<stop  offset="0.1792" style="stop-color:#B7B7B7"/>
		<stop  offset="0.2437" style="stop-color:#CDCDCD"/>
		<stop  offset="0.319" style="stop-color:#DEDEDE"/>
		<stop  offset="0.4122" style="stop-color:#E9E9E9"/>
		<stop  offset="0.5428" style="stop-color:#F0F0F0"/>
		<stop  offset="0.9056" style="stop-color:#F2F2F2"/>
	</linearGradient>
	<polygon class="st26" points="34.9,61.5 13.2,61.5 2.3,80.3 13.2,99.2 34.9,99.2 45.8,80.3 	"/>
	
		<linearGradient id="SVGID_26_" gradientUnits="userSpaceOnUse" x1="8953.9648" y1="4649.2803" x2="8951.5557" y2="4701.9478" gradientTransform="matrix(6.123234e-17 -1 1 6.123234e-17 -4676.2578 9032.9697)">
		<stop  offset="0" style="stop-color:#404040"/>
		<stop  offset="2.450494e-02" style="stop-color:#575757"/>
		<stop  offset="7.038973e-02" style="stop-color:#7B7B7B"/>
		<stop  offset="0.1221" style="stop-color:#9B9B9B"/>
		<stop  offset="0.1792" style="stop-color:#B7B7B7"/>
		<stop  offset="0.2437" style="stop-color:#CDCDCD"/>
		<stop  offset="0.319" style="stop-color:#DEDEDE"/>
		<stop  offset="0.4122" style="stop-color:#E9E9E9"/>
		<stop  offset="0.5428" style="stop-color:#F0F0F0"/>
		<stop  offset="0.9056" style="stop-color:#F2F2F2"/>
	</linearGradient>
	<polygon class="st27" points="13.2,61.5 -8.5,61.5 -19.4,80.3 -8.5,99.2 13.2,99.2 24,80.3 	"/>
	
		<linearGradient id="SVGID_27_" gradientUnits="userSpaceOnUse" x1="9029.3232" y1="4649.2803" x2="9026.9141" y2="4701.9478" gradientTransform="matrix(6.123234e-17 -1 1 6.123234e-17 -4676.2578 9032.9697)">
		<stop  offset="0" style="stop-color:#404040"/>
		<stop  offset="2.450494e-02" style="stop-color:#575757"/>
		<stop  offset="7.038973e-02" style="stop-color:#7B7B7B"/>
		<stop  offset="0.1221" style="stop-color:#9B9B9B"/>
		<stop  offset="0.1792" style="stop-color:#B7B7B7"/>
		<stop  offset="0.2437" style="stop-color:#CDCDCD"/>
		<stop  offset="0.319" style="stop-color:#DEDEDE"/>
		<stop  offset="0.4122" style="stop-color:#E9E9E9"/>
		<stop  offset="0.5428" style="stop-color:#F0F0F0"/>
		<stop  offset="0.9056" style="stop-color:#F2F2F2"/>
	</linearGradient>
	<polygon class="st28" points="13.2,-13.9 -8.5,-13.9 -19.4,5 -8.5,23.8 13.2,23.8 24,5 	"/>
	
		<linearGradient id="SVGID_28_" gradientUnits="userSpaceOnUse" x1="8972.3965" y1="4677.5386" x2="8990.498" y2="4700.5537" gradientTransform="matrix(6.123234e-17 -1 1 6.123234e-17 -4676.2578 9032.9697)">
		<stop  offset="0" style="stop-color:#404040"/>
		<stop  offset="5.473560e-03" style="stop-color:#444444"/>
		<stop  offset="6.111755e-02" style="stop-color:#6B6B6B"/>
		<stop  offset="0.1222" style="stop-color:#8C8C8C"/>
		<stop  offset="0.1894" style="stop-color:#A9A9A9"/>
		<stop  offset="0.2641" style="stop-color:#C0C0C0"/>
		<stop  offset="0.3495" style="stop-color:#D2D2D2"/>
		<stop  offset="0.452" style="stop-color:#DFDFDF"/>
		<stop  offset="0.5888" style="stop-color:#E6E6E6"/>
		<stop  offset="0.9024" style="stop-color:#E8E8E8"/>
	</linearGradient>
	<polygon class="st29" points="34.9,23.8 13.2,23.8 2.3,42.7 13.2,61.5 34.9,61.5 45.8,42.7 	"/>
	
		<linearGradient id="SVGID_29_" gradientUnits="userSpaceOnUse" x1="8972.3965" y1="4655.8208" x2="8990.498" y2="4678.8359" gradientTransform="matrix(6.123234e-17 -1 1 6.123234e-17 -4676.2578 9032.9697)">
		<stop  offset="0" style="stop-color:#404040"/>
		<stop  offset="5.473560e-03" style="stop-color:#444444"/>
		<stop  offset="6.111755e-02" style="stop-color:#6B6B6B"/>
		<stop  offset="0.1222" style="stop-color:#8C8C8C"/>
		<stop  offset="0.1894" style="stop-color:#A9A9A9"/>
		<stop  offset="0.2641" style="stop-color:#C0C0C0"/>
		<stop  offset="0.3495" style="stop-color:#D2D2D2"/>
		<stop  offset="0.452" style="stop-color:#DFDFDF"/>
		<stop  offset="0.5888" style="stop-color:#E6E6E6"/>
		<stop  offset="0.9024" style="stop-color:#E8E8E8"/>
	</linearGradient>
	<polygon class="st30" points="13.2,23.8 -8.5,23.8 -19.4,42.7 -8.5,61.5 13.2,61.5 24,42.7 	"/>
	
		<linearGradient id="SVGID_30_" gradientUnits="userSpaceOnUse" x1="9029.3232" y1="4670.998" x2="9026.9141" y2="4723.6655" gradientTransform="matrix(6.123234e-17 -1 1 6.123234e-17 -4676.2578 9032.9697)">
		<stop  offset="0" style="stop-color:#404040"/>
		<stop  offset="5.762937e-03" style="stop-color:#454545"/>
		<stop  offset="5.310770e-02" style="stop-color:#696969"/>
		<stop  offset="0.1061" style="stop-color:#898989"/>
		<stop  offset="0.1649" style="stop-color:#A5A5A5"/>
		<stop  offset="0.2314" style="stop-color:#BBBBBB"/>
		<stop  offset="0.309" style="stop-color:#CCCCCC"/>
		<stop  offset="0.4049" style="stop-color:#D7D7D7"/>
		<stop  offset="0.5395" style="stop-color:#DEDEDE"/>
		<stop  offset="0.9133" style="stop-color:#E0E0E0"/>
	</linearGradient>
	<polygon class="st31" points="34.9,-13.9 13.2,-13.9 2.3,5 13.2,23.8 34.9,23.8 45.8,5 	"/>
	
		<linearGradient id="SVGID_31_" gradientUnits="userSpaceOnUse" x1="9052.3682" y1="4827.1919" x2="9012.7998" y2="4867.7949" gradientTransform="matrix(6.123234e-17 -1 1 6.123234e-17 -4676.2578 9032.9697)">
		<stop  offset="0" style="stop-color:#404040"/>
		<stop  offset="4.824975e-02" style="stop-color:#5E5E5E"/>
		<stop  offset="0.1144" style="stop-color:#808080"/>
		<stop  offset="0.1879" style="stop-color:#9D9D9D"/>
		<stop  offset="0.2689" style="stop-color:#B5B5B5"/>
		<stop  offset="0.3606" style="stop-color:#C8C8C8"/>
		<stop  offset="0.4695" style="stop-color:#D4D4D4"/>
		<stop  offset="0.612" style="stop-color:#DCDCDC"/>
		<stop  offset="0.9165" style="stop-color:#DEDEDE"/>
	</linearGradient>
	<polygon class="st32" points="186.8,-13.9 165.1,-13.9 154.2,5 165.1,23.8 186.8,23.8 197.7,5 	"/>
	
		<linearGradient id="SVGID_32_" gradientUnits="userSpaceOnUse" x1="9014.6895" y1="4827.1919" x2="8975.1211" y2="4867.7949" gradientTransform="matrix(6.123234e-17 -1 1 6.123234e-17 -4676.2578 9032.9697)">
		<stop  offset="0" style="stop-color:#404040"/>
		<stop  offset="4.824975e-02" style="stop-color:#5E5E5E"/>
		<stop  offset="0.1144" style="stop-color:#808080"/>
		<stop  offset="0.1879" style="stop-color:#9D9D9D"/>
		<stop  offset="0.2689" style="stop-color:#B5B5B5"/>
		<stop  offset="0.3606" style="stop-color:#C8C8C8"/>
		<stop  offset="0.4695" style="stop-color:#D4D4D4"/>
		<stop  offset="0.612" style="stop-color:#DCDCDC"/>
		<stop  offset="0.9165" style="stop-color:#DEDEDE"/>
	</linearGradient>
	<polygon class="st33" points="186.8,23.8 165.1,23.8 154.2,42.7 165.1,61.5 186.8,61.5 197.7,42.7 	"/>
	
		<linearGradient id="SVGID_33_" gradientUnits="userSpaceOnUse" x1="8953.9648" y1="4822.9067" x2="8951.5557" y2="4875.5742" gradientTransform="matrix(6.123234e-17 -1 1 6.123234e-17 -4676.2578 9032.9697)">
		<stop  offset="0" style="stop-color:#404040"/>
		<stop  offset="2.450494e-02" style="stop-color:#575757"/>
		<stop  offset="7.038973e-02" style="stop-color:#7B7B7B"/>
		<stop  offset="0.1221" style="stop-color:#9B9B9B"/>
		<stop  offset="0.1792" style="stop-color:#B7B7B7"/>
		<stop  offset="0.2437" style="stop-color:#CDCDCD"/>
		<stop  offset="0.319" style="stop-color:#DEDEDE"/>
		<stop  offset="0.4122" style="stop-color:#E9E9E9"/>
		<stop  offset="0.5428" style="stop-color:#F0F0F0"/>
		<stop  offset="0.9056" style="stop-color:#F2F2F2"/>
	</linearGradient>
	<polygon class="st34" points="186.8,61.5 165.1,61.5 154.2,80.3 165.1,99.2 186.8,99.2 197.7,80.3 	"/>
	
		<linearGradient id="SVGID_34_" gradientUnits="userSpaceOnUse" x1="8991.6445" y1="4801.1895" x2="8989.2354" y2="4853.8569" gradientTransform="matrix(6.123234e-17 -1 1 6.123234e-17 -4676.2578 9032.9697)">
		<stop  offset="0" style="stop-color:#404040"/>
		<stop  offset="2.450494e-02" style="stop-color:#575757"/>
		<stop  offset="7.038973e-02" style="stop-color:#7B7B7B"/>
		<stop  offset="0.1221" style="stop-color:#9B9B9B"/>
		<stop  offset="0.1792" style="stop-color:#B7B7B7"/>
		<stop  offset="0.2437" style="stop-color:#CDCDCD"/>
		<stop  offset="0.319" style="stop-color:#DEDEDE"/>
		<stop  offset="0.4122" style="stop-color:#E9E9E9"/>
		<stop  offset="0.5428" style="stop-color:#F0F0F0"/>
		<stop  offset="0.9056" style="stop-color:#F2F2F2"/>
	</linearGradient>
	<polygon class="st35" points="165.1,23.8 143.4,23.8 132.5,42.7 143.4,61.5 165.1,61.5 176,42.7 	"/>
	
		<linearGradient id="SVGID_35_" gradientUnits="userSpaceOnUse" x1="9029.3232" y1="4801.1895" x2="9026.9141" y2="4853.8569" gradientTransform="matrix(6.123234e-17 -1 1 6.123234e-17 -4676.2578 9032.9697)">
		<stop  offset="0" style="stop-color:#404040"/>
		<stop  offset="2.450494e-02" style="stop-color:#575757"/>
		<stop  offset="7.038973e-02" style="stop-color:#7B7B7B"/>
		<stop  offset="0.1221" style="stop-color:#9B9B9B"/>
		<stop  offset="0.1792" style="stop-color:#B7B7B7"/>
		<stop  offset="0.2437" style="stop-color:#CDCDCD"/>
		<stop  offset="0.319" style="stop-color:#DEDEDE"/>
		<stop  offset="0.4122" style="stop-color:#E9E9E9"/>
		<stop  offset="0.5428" style="stop-color:#F0F0F0"/>
		<stop  offset="0.9056" style="stop-color:#F2F2F2"/>
	</linearGradient>
	<polygon class="st36" points="165.1,-13.9 143.4,-13.9 132.5,5 143.4,23.8 165.1,23.8 176,5 	"/>
	
		<linearGradient id="SVGID_36_" gradientUnits="userSpaceOnUse" x1="8977.0107" y1="4805.4741" x2="8937.4414" y2="4846.0771" gradientTransform="matrix(6.123234e-17 -1 1 6.123234e-17 -4676.2578 9032.9697)">
		<stop  offset="0" style="stop-color:#404040"/>
		<stop  offset="4.824975e-02" style="stop-color:#5E5E5E"/>
		<stop  offset="0.1144" style="stop-color:#808080"/>
		<stop  offset="0.1879" style="stop-color:#9D9D9D"/>
		<stop  offset="0.2689" style="stop-color:#B5B5B5"/>
		<stop  offset="0.3606" style="stop-color:#C8C8C8"/>
		<stop  offset="0.4695" style="stop-color:#D4D4D4"/>
		<stop  offset="0.612" style="stop-color:#DCDCDC"/>
		<stop  offset="0.9165" style="stop-color:#DEDEDE"/>
	</linearGradient>
	<polygon class="st37" points="165.1,61.5 143.4,61.5 132.5,80.3 143.4,99.2 165.1,99.2 176,80.3 	"/>
	
		<linearGradient id="SVGID_37_" gradientUnits="userSpaceOnUse" x1="8916.2861" y1="4714.4336" x2="8913.877" y2="4767.1011" gradientTransform="matrix(6.123234e-17 -1 1 6.123234e-17 -4676.2578 9032.9697)">
		<stop  offset="0" style="stop-color:#404040"/>
		<stop  offset="5.762937e-03" style="stop-color:#454545"/>
		<stop  offset="5.310770e-02" style="stop-color:#696969"/>
		<stop  offset="0.1061" style="stop-color:#898989"/>
		<stop  offset="0.1649" style="stop-color:#A5A5A5"/>
		<stop  offset="0.2314" style="stop-color:#BBBBBB"/>
		<stop  offset="0.309" style="stop-color:#CCCCCC"/>
		<stop  offset="0.4049" style="stop-color:#D7D7D7"/>
		<stop  offset="0.5395" style="stop-color:#DEDEDE"/>
		<stop  offset="0.9133" style="stop-color:#E0E0E0"/>
	</linearGradient>
	<polygon class="st38" points="78.3,99.2 56.6,99.2 45.8,118 56.6,136.9 78.3,136.9 89.2,118 	"/>
	
		<linearGradient id="SVGID_38_" gradientUnits="userSpaceOnUse" x1="8916.2861" y1="4779.5864" x2="8913.877" y2="4832.2539" gradientTransform="matrix(6.123234e-17 -1 1 6.123234e-17 -4676.2578 9032.9697)">
		<stop  offset="0" style="stop-color:#404040"/>
		<stop  offset="2.450494e-02" style="stop-color:#575757"/>
		<stop  offset="7.038973e-02" style="stop-color:#7B7B7B"/>
		<stop  offset="0.1221" style="stop-color:#9B9B9B"/>
		<stop  offset="0.1792" style="stop-color:#B7B7B7"/>
		<stop  offset="0.2437" style="stop-color:#CDCDCD"/>
		<stop  offset="0.319" style="stop-color:#DEDEDE"/>
		<stop  offset="0.4122" style="stop-color:#E9E9E9"/>
		<stop  offset="0.5428" style="stop-color:#F0F0F0"/>
		<stop  offset="0.9056" style="stop-color:#F2F2F2"/>
	</linearGradient>
	<polygon class="st39" points="143.5,99.2 121.8,99.2 110.9,118 121.8,136.9 143.5,136.9 154.4,118 	"/>
	
		<linearGradient id="SVGID_39_" gradientUnits="userSpaceOnUse" x1="8916.2861" y1="4757.8691" x2="8913.877" y2="4810.5366" gradientTransform="matrix(6.123234e-17 -1 1 6.123234e-17 -4676.2578 9032.9697)">
		<stop  offset="0" style="stop-color:#404040"/>
		<stop  offset="2.450494e-02" style="stop-color:#575757"/>
		<stop  offset="7.038973e-02" style="stop-color:#7B7B7B"/>
		<stop  offset="0.1221" style="stop-color:#9B9B9B"/>
		<stop  offset="0.1792" style="stop-color:#B7B7B7"/>
		<stop  offset="0.2437" style="stop-color:#CDCDCD"/>
		<stop  offset="0.319" style="stop-color:#DEDEDE"/>
		<stop  offset="0.4122" style="stop-color:#E9E9E9"/>
		<stop  offset="0.5428" style="stop-color:#F0F0F0"/>
		<stop  offset="0.9056" style="stop-color:#F2F2F2"/>
	</linearGradient>
	<polygon class="st40" points="121.8,99.2 100.1,99.2 89.2,118 100.1,136.9 121.8,136.9 132.6,118 	"/>
	
		<linearGradient id="SVGID_40_" gradientUnits="userSpaceOnUse" x1="8916.2861" y1="4736.1514" x2="8913.877" y2="4788.8188" gradientTransform="matrix(6.123234e-17 -1 1 6.123234e-17 -4676.2578 9032.9697)">
		<stop  offset="0" style="stop-color:#404040"/>
		<stop  offset="2.450494e-02" style="stop-color:#575757"/>
		<stop  offset="7.038973e-02" style="stop-color:#7B7B7B"/>
		<stop  offset="0.1221" style="stop-color:#9B9B9B"/>
		<stop  offset="0.1792" style="stop-color:#B7B7B7"/>
		<stop  offset="0.2437" style="stop-color:#CDCDCD"/>
		<stop  offset="0.319" style="stop-color:#DEDEDE"/>
		<stop  offset="0.4122" style="stop-color:#E9E9E9"/>
		<stop  offset="0.5428" style="stop-color:#F0F0F0"/>
		<stop  offset="0.9056" style="stop-color:#F2F2F2"/>
	</linearGradient>
	<polygon class="st41" points="100.1,99.2 78.3,99.2 67.5,118 78.3,136.9 100.1,136.9 110.9,118 	"/>
	
		<linearGradient id="SVGID_41_" gradientUnits="userSpaceOnUse" x1="8897.0381" y1="4699.2568" x2="8915.1406" y2="4722.272" gradientTransform="matrix(6.123234e-17 -1 1 6.123234e-17 -4676.2578 9032.9697)">
		<stop  offset="0" style="stop-color:#404040"/>
		<stop  offset="5.473560e-03" style="stop-color:#444444"/>
		<stop  offset="6.111755e-02" style="stop-color:#6B6B6B"/>
		<stop  offset="0.1222" style="stop-color:#8C8C8C"/>
		<stop  offset="0.1894" style="stop-color:#A9A9A9"/>
		<stop  offset="0.2641" style="stop-color:#C0C0C0"/>
		<stop  offset="0.3495" style="stop-color:#D2D2D2"/>
		<stop  offset="0.452" style="stop-color:#DFDFDF"/>
		<stop  offset="0.5888" style="stop-color:#E6E6E6"/>
		<stop  offset="0.9024" style="stop-color:#E8E8E8"/>
	</linearGradient>
	<polygon class="st42" points="56.6,99.2 34.9,99.2 24,118 34.9,136.9 56.6,136.9 67.5,118 	"/>
	
		<linearGradient id="SVGID_42_" gradientUnits="userSpaceOnUse" x1="8953.9648" y1="4779.5864" x2="8951.5557" y2="4832.2539" gradientTransform="matrix(6.123234e-17 -1 1 6.123234e-17 -4676.2578 9032.9697)">
		<stop  offset="0" style="stop-color:#404040"/>
		<stop  offset="2.450494e-02" style="stop-color:#575757"/>
		<stop  offset="7.038973e-02" style="stop-color:#7B7B7B"/>
		<stop  offset="0.1221" style="stop-color:#9B9B9B"/>
		<stop  offset="0.1792" style="stop-color:#B7B7B7"/>
		<stop  offset="0.2437" style="stop-color:#CDCDCD"/>
		<stop  offset="0.319" style="stop-color:#DEDEDE"/>
		<stop  offset="0.4122" style="stop-color:#E9E9E9"/>
		<stop  offset="0.5428" style="stop-color:#F0F0F0"/>
		<stop  offset="0.9056" style="stop-color:#F2F2F2"/>
	</linearGradient>
	<polygon class="st43" points="143.5,61.5 121.8,61.5 110.9,80.3 121.8,99.2 143.5,99.2 154.4,80.3 	"/>
	
		<linearGradient id="SVGID_43_" gradientUnits="userSpaceOnUse" x1="9029.3232" y1="4779.5864" x2="9026.9141" y2="4832.2539" gradientTransform="matrix(6.123234e-17 -1 1 6.123234e-17 -4676.2578 9032.9697)">
		<stop  offset="0" style="stop-color:#404040"/>
		<stop  offset="2.450494e-02" style="stop-color:#575757"/>
		<stop  offset="7.038973e-02" style="stop-color:#7B7B7B"/>
		<stop  offset="0.1221" style="stop-color:#9B9B9B"/>
		<stop  offset="0.1792" style="stop-color:#B7B7B7"/>
		<stop  offset="0.2437" style="stop-color:#CDCDCD"/>
		<stop  offset="0.319" style="stop-color:#DEDEDE"/>
		<stop  offset="0.4122" style="stop-color:#E9E9E9"/>
		<stop  offset="0.5428" style="stop-color:#F0F0F0"/>
		<stop  offset="0.9056" style="stop-color:#F2F2F2"/>
	</linearGradient>
	<polygon class="st44" points="143.5,-13.9 121.8,-13.9 110.9,5 121.8,23.8 143.5,23.8 154.4,5 	"/>
	
		<linearGradient id="SVGID_44_" gradientUnits="userSpaceOnUse" x1="9029.3232" y1="4757.8691" x2="9026.9141" y2="4810.5366" gradientTransform="matrix(6.123234e-17 -1 1 6.123234e-17 -4676.2578 9032.9697)">
		<stop  offset="0" style="stop-color:#404040"/>
		<stop  offset="2.450494e-02" style="stop-color:#575757"/>
		<stop  offset="7.038973e-02" style="stop-color:#7B7B7B"/>
		<stop  offset="0.1221" style="stop-color:#9B9B9B"/>
		<stop  offset="0.1792" style="stop-color:#B7B7B7"/>
		<stop  offset="0.2437" style="stop-color:#CDCDCD"/>
		<stop  offset="0.319" style="stop-color:#DEDEDE"/>
		<stop  offset="0.4122" style="stop-color:#E9E9E9"/>
		<stop  offset="0.5428" style="stop-color:#F0F0F0"/>
		<stop  offset="0.9056" style="stop-color:#F2F2F2"/>
	</linearGradient>
	<polygon class="st45" points="121.8,-13.9 100.1,-13.9 89.2,5 100.1,23.8 121.8,23.8 132.6,5 	"/>
	
		<linearGradient id="SVGID_45_" gradientUnits="userSpaceOnUse" x1="8953.9648" y1="4736.1514" x2="8951.5557" y2="4788.8188" gradientTransform="matrix(6.123234e-17 -1 1 6.123234e-17 -4676.2578 9032.9697)">
		<stop  offset="0" style="stop-color:#404040"/>
		<stop  offset="2.450494e-02" style="stop-color:#575757"/>
		<stop  offset="7.038973e-02" style="stop-color:#7B7B7B"/>
		<stop  offset="0.1221" style="stop-color:#9B9B9B"/>
		<stop  offset="0.1792" style="stop-color:#B7B7B7"/>
		<stop  offset="0.2437" style="stop-color:#CDCDCD"/>
		<stop  offset="0.319" style="stop-color:#DEDEDE"/>
		<stop  offset="0.4122" style="stop-color:#E9E9E9"/>
		<stop  offset="0.5428" style="stop-color:#F0F0F0"/>
		<stop  offset="0.9056" style="stop-color:#F2F2F2"/>
	</linearGradient>
	<polygon class="st46" points="100.1,61.5 78.3,61.5 67.5,80.3 78.3,99.2 100.1,99.2 110.9,80.3 	"/>
	
		<linearGradient id="SVGID_46_" gradientUnits="userSpaceOnUse" x1="8953.9648" y1="4757.8691" x2="8951.5557" y2="4810.5366" gradientTransform="matrix(6.123234e-17 -1 1 6.123234e-17 -4676.2578 9032.9697)">
		<stop  offset="0" style="stop-color:#404040"/>
		<stop  offset="2.450494e-02" style="stop-color:#575757"/>
		<stop  offset="7.038973e-02" style="stop-color:#7B7B7B"/>
		<stop  offset="0.1221" style="stop-color:#9B9B9B"/>
		<stop  offset="0.1792" style="stop-color:#B7B7B7"/>
		<stop  offset="0.2437" style="stop-color:#CDCDCD"/>
		<stop  offset="0.319" style="stop-color:#DEDEDE"/>
		<stop  offset="0.4122" style="stop-color:#E9E9E9"/>
		<stop  offset="0.5428" style="stop-color:#F0F0F0"/>
		<stop  offset="0.9056" style="stop-color:#F2F2F2"/>
	</linearGradient>
	<polygon class="st47" points="121.8,61.5 100.1,61.5 89.2,80.3 100.1,99.2 121.8,99.2 132.6,80.3 	"/>
	
		<linearGradient id="SVGID_47_" gradientUnits="userSpaceOnUse" x1="8972.3965" y1="4786.1274" x2="8990.498" y2="4809.1421" gradientTransform="matrix(6.123234e-17 -1 1 6.123234e-17 -4676.2578 9032.9697)">
		<stop  offset="0" style="stop-color:#404040"/>
		<stop  offset="5.473560e-03" style="stop-color:#444444"/>
		<stop  offset="6.111755e-02" style="stop-color:#6B6B6B"/>
		<stop  offset="0.1222" style="stop-color:#8C8C8C"/>
		<stop  offset="0.1894" style="stop-color:#A9A9A9"/>
		<stop  offset="0.2641" style="stop-color:#C0C0C0"/>
		<stop  offset="0.3495" style="stop-color:#D2D2D2"/>
		<stop  offset="0.452" style="stop-color:#DFDFDF"/>
		<stop  offset="0.5888" style="stop-color:#E6E6E6"/>
		<stop  offset="0.9024" style="stop-color:#E8E8E8"/>
	</linearGradient>
	<polygon class="st48" points="143.5,23.8 121.8,23.8 110.9,42.7 121.8,61.5 143.5,61.5 154.4,42.7 	"/>
	
		<linearGradient id="SVGID_48_" gradientUnits="userSpaceOnUse" x1="8991.6445" y1="4757.8691" x2="8989.2354" y2="4810.5366" gradientTransform="matrix(6.123234e-17 -1 1 6.123234e-17 -4676.2578 9032.9697)">
		<stop  offset="0" style="stop-color:#404040"/>
		<stop  offset="5.762937e-03" style="stop-color:#454545"/>
		<stop  offset="5.310770e-02" style="stop-color:#696969"/>
		<stop  offset="0.1061" style="stop-color:#898989"/>
		<stop  offset="0.1649" style="stop-color:#A5A5A5"/>
		<stop  offset="0.2314" style="stop-color:#BBBBBB"/>
		<stop  offset="0.309" style="stop-color:#CCCCCC"/>
		<stop  offset="0.4049" style="stop-color:#D7D7D7"/>
		<stop  offset="0.5395" style="stop-color:#DEDEDE"/>
		<stop  offset="0.9133" style="stop-color:#E0E0E0"/>
	</linearGradient>
	<polygon class="st49" points="121.8,23.8 100.1,23.8 89.2,42.7 100.1,61.5 121.8,61.5 132.6,42.7 	"/>
	
		<linearGradient id="SVGID_49_" gradientUnits="userSpaceOnUse" x1="8991.6445" y1="4736.1514" x2="8989.2354" y2="4788.8188" gradientTransform="matrix(6.123234e-17 -1 1 6.123234e-17 -4676.2578 9032.9697)">
		<stop  offset="0" style="stop-color:#404040"/>
		<stop  offset="2.450494e-02" style="stop-color:#575757"/>
		<stop  offset="7.038973e-02" style="stop-color:#7B7B7B"/>
		<stop  offset="0.1221" style="stop-color:#9B9B9B"/>
		<stop  offset="0.1792" style="stop-color:#B7B7B7"/>
		<stop  offset="0.2437" style="stop-color:#CDCDCD"/>
		<stop  offset="0.319" style="stop-color:#DEDEDE"/>
		<stop  offset="0.4122" style="stop-color:#E9E9E9"/>
		<stop  offset="0.5428" style="stop-color:#F0F0F0"/>
		<stop  offset="0.9056" style="stop-color:#F2F2F2"/>
	</linearGradient>
	<polygon class="st50" points="100.1,23.8 78.3,23.8 67.5,42.7 78.3,61.5 100.1,61.5 110.9,42.7 	"/>
	
		<linearGradient id="SVGID_50_" gradientUnits="userSpaceOnUse" x1="9052.3682" y1="4740.436" x2="9012.7998" y2="4781.0396" gradientTransform="matrix(6.123234e-17 -1 1 6.123234e-17 -4676.2578 9032.9697)">
		<stop  offset="0" style="stop-color:#404040"/>
		<stop  offset="4.824975e-02" style="stop-color:#5E5E5E"/>
		<stop  offset="0.1144" style="stop-color:#808080"/>
		<stop  offset="0.1879" style="stop-color:#9D9D9D"/>
		<stop  offset="0.2689" style="stop-color:#B5B5B5"/>
		<stop  offset="0.3606" style="stop-color:#C8C8C8"/>
		<stop  offset="0.4695" style="stop-color:#D4D4D4"/>
		<stop  offset="0.612" style="stop-color:#DCDCDC"/>
		<stop  offset="0.9165" style="stop-color:#DEDEDE"/>
	</linearGradient>
	<polygon class="st51" points="100.1,-13.9 78.3,-13.9 67.5,5 78.3,23.8 100.1,23.8 110.9,5 	"/>
	
		<linearGradient id="SVGID_51_" gradientUnits="userSpaceOnUse" x1="9052.3682" y1="4718.7188" x2="9012.7998" y2="4759.3218" gradientTransform="matrix(6.123234e-17 -1 1 6.123234e-17 -4676.2578 9032.9697)">
		<stop  offset="0" style="stop-color:#404040"/>
		<stop  offset="4.824975e-02" style="stop-color:#5E5E5E"/>
		<stop  offset="0.1144" style="stop-color:#808080"/>
		<stop  offset="0.1879" style="stop-color:#9D9D9D"/>
		<stop  offset="0.2689" style="stop-color:#B5B5B5"/>
		<stop  offset="0.3606" style="stop-color:#C8C8C8"/>
		<stop  offset="0.4695" style="stop-color:#D4D4D4"/>
		<stop  offset="0.612" style="stop-color:#DCDCDC"/>
		<stop  offset="0.9165" style="stop-color:#DEDEDE"/>
	</linearGradient>
	<polygon class="st52" points="78.3,-13.9 56.6,-13.9 45.8,5 56.6,23.8 78.3,23.8 89.2,5 	"/>
	
		<linearGradient id="SVGID_52_" gradientUnits="userSpaceOnUse" x1="9014.6895" y1="4718.7188" x2="8975.1211" y2="4759.3218" gradientTransform="matrix(6.123234e-17 -1 1 6.123234e-17 -4676.2578 9032.9697)">
		<stop  offset="0" style="stop-color:#404040"/>
		<stop  offset="4.824975e-02" style="stop-color:#5E5E5E"/>
		<stop  offset="0.1144" style="stop-color:#808080"/>
		<stop  offset="0.1879" style="stop-color:#9D9D9D"/>
		<stop  offset="0.2689" style="stop-color:#B5B5B5"/>
		<stop  offset="0.3606" style="stop-color:#C8C8C8"/>
		<stop  offset="0.4695" style="stop-color:#D4D4D4"/>
		<stop  offset="0.612" style="stop-color:#DCDCDC"/>
		<stop  offset="0.9165" style="stop-color:#DEDEDE"/>
	</linearGradient>
	<polygon class="st53" points="78.3,23.8 56.6,23.8 45.8,42.7 56.6,61.5 78.3,61.5 89.2,42.7 	"/>
	
		<linearGradient id="SVGID_53_" gradientUnits="userSpaceOnUse" x1="8953.9648" y1="4714.4336" x2="8951.5557" y2="4767.1011" gradientTransform="matrix(6.123234e-17 -1 1 6.123234e-17 -4676.2578 9032.9697)">
		<stop  offset="0" style="stop-color:#404040"/>
		<stop  offset="2.450494e-02" style="stop-color:#575757"/>
		<stop  offset="7.038973e-02" style="stop-color:#7B7B7B"/>
		<stop  offset="0.1221" style="stop-color:#9B9B9B"/>
		<stop  offset="0.1792" style="stop-color:#B7B7B7"/>
		<stop  offset="0.2437" style="stop-color:#CDCDCD"/>
		<stop  offset="0.319" style="stop-color:#DEDEDE"/>
		<stop  offset="0.4122" style="stop-color:#E9E9E9"/>
		<stop  offset="0.5428" style="stop-color:#F0F0F0"/>
		<stop  offset="0.9056" style="stop-color:#F2F2F2"/>
	</linearGradient>
	<polygon class="st54" points="78.3,61.5 56.6,61.5 45.8,80.3 56.6,99.2 78.3,99.2 89.2,80.3 	"/>
	
		<linearGradient id="SVGID_54_" gradientUnits="userSpaceOnUse" x1="8991.6445" y1="4692.7163" x2="8989.2354" y2="4745.3838" gradientTransform="matrix(6.123234e-17 -1 1 6.123234e-17 -4676.2578 9032.9697)">
		<stop  offset="0" style="stop-color:#404040"/>
		<stop  offset="2.450494e-02" style="stop-color:#575757"/>
		<stop  offset="7.038973e-02" style="stop-color:#7B7B7B"/>
		<stop  offset="0.1221" style="stop-color:#9B9B9B"/>
		<stop  offset="0.1792" style="stop-color:#B7B7B7"/>
		<stop  offset="0.2437" style="stop-color:#CDCDCD"/>
		<stop  offset="0.319" style="stop-color:#DEDEDE"/>
		<stop  offset="0.4122" style="stop-color:#E9E9E9"/>
		<stop  offset="0.5428" style="stop-color:#F0F0F0"/>
		<stop  offset="0.9056" style="stop-color:#F2F2F2"/>
	</linearGradient>
	<polygon class="st55" points="56.6,23.8 34.9,23.8 24,42.7 34.9,61.5 56.6,61.5 67.5,42.7 	"/>
	
		<linearGradient id="SVGID_55_" gradientUnits="userSpaceOnUse" x1="9029.3232" y1="4692.7163" x2="9026.9141" y2="4745.3838" gradientTransform="matrix(6.123234e-17 -1 1 6.123234e-17 -4676.2578 9032.9697)">
		<stop  offset="0" style="stop-color:#404040"/>
		<stop  offset="2.450494e-02" style="stop-color:#575757"/>
		<stop  offset="7.038973e-02" style="stop-color:#7B7B7B"/>
		<stop  offset="0.1221" style="stop-color:#9B9B9B"/>
		<stop  offset="0.1792" style="stop-color:#B7B7B7"/>
		<stop  offset="0.2437" style="stop-color:#CDCDCD"/>
		<stop  offset="0.319" style="stop-color:#DEDEDE"/>
		<stop  offset="0.4122" style="stop-color:#E9E9E9"/>
		<stop  offset="0.5428" style="stop-color:#F0F0F0"/>
		<stop  offset="0.9056" style="stop-color:#F2F2F2"/>
	</linearGradient>
	<polygon class="st56" points="56.6,-13.9 34.9,-13.9 24,5 34.9,23.8 56.6,23.8 67.5,5 	"/>
	
		<linearGradient id="SVGID_56_" gradientUnits="userSpaceOnUse" x1="8977.0107" y1="4697.001" x2="8937.4414" y2="4737.604" gradientTransform="matrix(6.123234e-17 -1 1 6.123234e-17 -4676.2578 9032.9697)">
		<stop  offset="0" style="stop-color:#404040"/>
		<stop  offset="4.824975e-02" style="stop-color:#5E5E5E"/>
		<stop  offset="0.1144" style="stop-color:#808080"/>
		<stop  offset="0.1879" style="stop-color:#9D9D9D"/>
		<stop  offset="0.2689" style="stop-color:#B5B5B5"/>
		<stop  offset="0.3606" style="stop-color:#C8C8C8"/>
		<stop  offset="0.4695" style="stop-color:#D4D4D4"/>
		<stop  offset="0.612" style="stop-color:#DCDCDC"/>
		<stop  offset="0.9165" style="stop-color:#DEDEDE"/>
	</linearGradient>
	<polygon class="st57" points="56.6,61.5 34.9,61.5 24,80.3 34.9,99.2 56.6,99.2 67.5,80.3 	"/>
	
		<linearGradient id="SVGID_57_" gradientUnits="userSpaceOnUse" x1="8916.2861" y1="4972.7852" x2="8913.877" y2="5025.4526" gradientTransform="matrix(6.123234e-17 -1 1 6.123234e-17 -4676.2578 9032.9697)">
		<stop  offset="0" style="stop-color:#404040"/>
		<stop  offset="2.450494e-02" style="stop-color:#575757"/>
		<stop  offset="7.038973e-02" style="stop-color:#7B7B7B"/>
		<stop  offset="0.1221" style="stop-color:#9B9B9B"/>
		<stop  offset="0.1792" style="stop-color:#B7B7B7"/>
		<stop  offset="0.2437" style="stop-color:#CDCDCD"/>
		<stop  offset="0.319" style="stop-color:#DEDEDE"/>
		<stop  offset="0.4122" style="stop-color:#E9E9E9"/>
		<stop  offset="0.5428" style="stop-color:#F0F0F0"/>
		<stop  offset="0.9056" style="stop-color:#F2F2F2"/>
	</linearGradient>
	<polygon class="st58" points="336.7,99.2 315,99.2 304.1,118 315,136.9 336.7,136.9 347.6,118 	"/>
	
		<linearGradient id="SVGID_58_" gradientUnits="userSpaceOnUse" x1="8916.2861" y1="4951.0674" x2="8913.877" y2="5003.7349" gradientTransform="matrix(6.123234e-17 -1 1 6.123234e-17 -4676.2578 9032.9697)">
		<stop  offset="0" style="stop-color:#404040"/>
		<stop  offset="2.450494e-02" style="stop-color:#575757"/>
		<stop  offset="7.038973e-02" style="stop-color:#7B7B7B"/>
		<stop  offset="0.1221" style="stop-color:#9B9B9B"/>
		<stop  offset="0.1792" style="stop-color:#B7B7B7"/>
		<stop  offset="0.2437" style="stop-color:#CDCDCD"/>
		<stop  offset="0.319" style="stop-color:#DEDEDE"/>
		<stop  offset="0.4122" style="stop-color:#E9E9E9"/>
		<stop  offset="0.5428" style="stop-color:#F0F0F0"/>
		<stop  offset="0.9056" style="stop-color:#F2F2F2"/>
	</linearGradient>
	<polygon class="st59" points="315,99.2 293.3,99.2 282.4,118 293.3,136.9 315,136.9 325.8,118 	"/>
	
		<linearGradient id="SVGID_59_" gradientUnits="userSpaceOnUse" x1="8953.9648" y1="4972.7852" x2="8951.5557" y2="5025.4526" gradientTransform="matrix(6.123234e-17 -1 1 6.123234e-17 -4676.2578 9032.9697)">
		<stop  offset="0" style="stop-color:#404040"/>
		<stop  offset="2.450494e-02" style="stop-color:#575757"/>
		<stop  offset="7.038973e-02" style="stop-color:#7B7B7B"/>
		<stop  offset="0.1221" style="stop-color:#9B9B9B"/>
		<stop  offset="0.1792" style="stop-color:#B7B7B7"/>
		<stop  offset="0.2437" style="stop-color:#CDCDCD"/>
		<stop  offset="0.319" style="stop-color:#DEDEDE"/>
		<stop  offset="0.4122" style="stop-color:#E9E9E9"/>
		<stop  offset="0.5428" style="stop-color:#F0F0F0"/>
		<stop  offset="0.9056" style="stop-color:#F2F2F2"/>
	</linearGradient>
	<polygon class="st60" points="336.7,61.5 315,61.5 304.1,80.3 315,99.2 336.7,99.2 347.6,80.3 	"/>
	
		<linearGradient id="SVGID_60_" gradientUnits="userSpaceOnUse" x1="8953.9648" y1="4951.0674" x2="8951.5557" y2="5003.7349" gradientTransform="matrix(6.123234e-17 -1 1 6.123234e-17 -4676.2578 9032.9697)">
		<stop  offset="0" style="stop-color:#404040"/>
		<stop  offset="2.450494e-02" style="stop-color:#575757"/>
		<stop  offset="7.038973e-02" style="stop-color:#7B7B7B"/>
		<stop  offset="0.1221" style="stop-color:#9B9B9B"/>
		<stop  offset="0.1792" style="stop-color:#B7B7B7"/>
		<stop  offset="0.2437" style="stop-color:#CDCDCD"/>
		<stop  offset="0.319" style="stop-color:#DEDEDE"/>
		<stop  offset="0.4122" style="stop-color:#E9E9E9"/>
		<stop  offset="0.5428" style="stop-color:#F0F0F0"/>
		<stop  offset="0.9056" style="stop-color:#F2F2F2"/>
	</linearGradient>
	<polygon class="st61" points="315,61.5 293.3,61.5 282.4,80.3 293.3,99.2 315,99.2 325.8,80.3 	"/>
	
		<linearGradient id="SVGID_61_" gradientUnits="userSpaceOnUse" x1="9029.3232" y1="4951.0674" x2="9026.9141" y2="5003.7349" gradientTransform="matrix(6.123234e-17 -1 1 6.123234e-17 -4676.2578 9032.9697)">
		<stop  offset="0" style="stop-color:#404040"/>
		<stop  offset="2.450494e-02" style="stop-color:#575757"/>
		<stop  offset="7.038973e-02" style="stop-color:#7B7B7B"/>
		<stop  offset="0.1221" style="stop-color:#9B9B9B"/>
		<stop  offset="0.1792" style="stop-color:#B7B7B7"/>
		<stop  offset="0.2437" style="stop-color:#CDCDCD"/>
		<stop  offset="0.319" style="stop-color:#DEDEDE"/>
		<stop  offset="0.4122" style="stop-color:#E9E9E9"/>
		<stop  offset="0.5428" style="stop-color:#F0F0F0"/>
		<stop  offset="0.9056" style="stop-color:#F2F2F2"/>
	</linearGradient>
	<polygon class="st62" points="315,-13.9 293.3,-13.9 282.4,5 293.3,23.8 315,23.8 325.8,5 	"/>
	
		<linearGradient id="SVGID_62_" gradientUnits="userSpaceOnUse" x1="8972.3965" y1="4979.3257" x2="8990.498" y2="5002.3408" gradientTransform="matrix(6.123234e-17 -1 1 6.123234e-17 -4676.2578 9032.9697)">
		<stop  offset="0" style="stop-color:#404040"/>
		<stop  offset="5.473560e-03" style="stop-color:#444444"/>
		<stop  offset="6.111755e-02" style="stop-color:#6B6B6B"/>
		<stop  offset="0.1222" style="stop-color:#8C8C8C"/>
		<stop  offset="0.1894" style="stop-color:#A9A9A9"/>
		<stop  offset="0.2641" style="stop-color:#C0C0C0"/>
		<stop  offset="0.3495" style="stop-color:#D2D2D2"/>
		<stop  offset="0.452" style="stop-color:#DFDFDF"/>
		<stop  offset="0.5888" style="stop-color:#E6E6E6"/>
		<stop  offset="0.9024" style="stop-color:#E8E8E8"/>
	</linearGradient>
	<polygon class="st63" points="336.7,23.8 315,23.8 304.1,42.7 315,61.5 336.7,61.5 347.6,42.7 	"/>
	
		<linearGradient id="SVGID_63_" gradientUnits="userSpaceOnUse" x1="8972.3965" y1="4957.6084" x2="8990.498" y2="4980.623" gradientTransform="matrix(6.123234e-17 -1 1 6.123234e-17 -4676.2578 9032.9697)">
		<stop  offset="0" style="stop-color:#404040"/>
		<stop  offset="5.473560e-03" style="stop-color:#444444"/>
		<stop  offset="6.111755e-02" style="stop-color:#6B6B6B"/>
		<stop  offset="0.1222" style="stop-color:#8C8C8C"/>
		<stop  offset="0.1894" style="stop-color:#A9A9A9"/>
		<stop  offset="0.2641" style="stop-color:#C0C0C0"/>
		<stop  offset="0.3495" style="stop-color:#D2D2D2"/>
		<stop  offset="0.452" style="stop-color:#DFDFDF"/>
		<stop  offset="0.5888" style="stop-color:#E6E6E6"/>
		<stop  offset="0.9024" style="stop-color:#E8E8E8"/>
	</linearGradient>
	<polygon class="st64" points="315,23.8 293.3,23.8 282.4,42.7 293.3,61.5 315,61.5 325.8,42.7 	"/>
	
		<linearGradient id="SVGID_64_" gradientUnits="userSpaceOnUse" x1="9029.3232" y1="4972.7852" x2="9026.9141" y2="5025.4526" gradientTransform="matrix(6.123234e-17 -1 1 6.123234e-17 -4676.2578 9032.9697)">
		<stop  offset="0" style="stop-color:#404040"/>
		<stop  offset="5.762937e-03" style="stop-color:#454545"/>
		<stop  offset="5.310770e-02" style="stop-color:#696969"/>
		<stop  offset="0.1061" style="stop-color:#898989"/>
		<stop  offset="0.1649" style="stop-color:#A5A5A5"/>
		<stop  offset="0.2314" style="stop-color:#BBBBBB"/>
		<stop  offset="0.309" style="stop-color:#CCCCCC"/>
		<stop  offset="0.4049" style="stop-color:#D7D7D7"/>
		<stop  offset="0.5395" style="stop-color:#DEDEDE"/>
		<stop  offset="0.9133" style="stop-color:#E0E0E0"/>
	</linearGradient>
	<polygon class="st65" points="336.7,-13.9 315,-13.9 304.1,5 315,23.8 336.7,23.8 347.6,5 	"/>
	
		<linearGradient id="SVGID_65_" gradientUnits="userSpaceOnUse" x1="8916.2861" y1="5016.2212" x2="8913.877" y2="5068.8887" gradientTransform="matrix(6.123234e-17 -1 1 6.123234e-17 -4676.2578 9032.9697)">
		<stop  offset="0" style="stop-color:#404040"/>
		<stop  offset="5.762937e-03" style="stop-color:#454545"/>
		<stop  offset="5.310770e-02" style="stop-color:#696969"/>
		<stop  offset="0.1061" style="stop-color:#898989"/>
		<stop  offset="0.1649" style="stop-color:#A5A5A5"/>
		<stop  offset="0.2314" style="stop-color:#BBBBBB"/>
		<stop  offset="0.309" style="stop-color:#CCCCCC"/>
		<stop  offset="0.4049" style="stop-color:#D7D7D7"/>
		<stop  offset="0.5395" style="stop-color:#DEDEDE"/>
		<stop  offset="0.9133" style="stop-color:#E0E0E0"/>
	</linearGradient>
	<polygon class="st66" points="380.1,99.2 358.4,99.2 347.6,118 358.4,136.9 380.1,136.9 391,118 	"/>
	
		<linearGradient id="SVGID_66_" gradientUnits="userSpaceOnUse" x1="8897.0381" y1="5001.0439" x2="8915.1406" y2="5024.0591" gradientTransform="matrix(6.123234e-17 -1 1 6.123234e-17 -4676.2578 9032.9697)">
		<stop  offset="0" style="stop-color:#404040"/>
		<stop  offset="5.473560e-03" style="stop-color:#444444"/>
		<stop  offset="6.111755e-02" style="stop-color:#6B6B6B"/>
		<stop  offset="0.1222" style="stop-color:#8C8C8C"/>
		<stop  offset="0.1894" style="stop-color:#A9A9A9"/>
		<stop  offset="0.2641" style="stop-color:#C0C0C0"/>
		<stop  offset="0.3495" style="stop-color:#D2D2D2"/>
		<stop  offset="0.452" style="stop-color:#DFDFDF"/>
		<stop  offset="0.5888" style="stop-color:#E6E6E6"/>
		<stop  offset="0.9024" style="stop-color:#E8E8E8"/>
	</linearGradient>
	<polygon class="st67" points="358.4,99.2 336.7,99.2 325.8,118 336.7,136.9 358.4,136.9 369.3,118 	"/>
	
		<linearGradient id="SVGID_67_" gradientUnits="userSpaceOnUse" x1="9052.3682" y1="5020.5059" x2="9012.7998" y2="5061.1089" gradientTransform="matrix(6.123234e-17 -1 1 6.123234e-17 -4676.2578 9032.9697)">
		<stop  offset="0" style="stop-color:#404040"/>
		<stop  offset="4.824975e-02" style="stop-color:#5E5E5E"/>
		<stop  offset="0.1144" style="stop-color:#808080"/>
		<stop  offset="0.1879" style="stop-color:#9D9D9D"/>
		<stop  offset="0.2689" style="stop-color:#B5B5B5"/>
		<stop  offset="0.3606" style="stop-color:#C8C8C8"/>
		<stop  offset="0.4695" style="stop-color:#D4D4D4"/>
		<stop  offset="0.612" style="stop-color:#DCDCDC"/>
		<stop  offset="0.9165" style="stop-color:#DEDEDE"/>
	</linearGradient>
	<polygon class="st68" points="380.1,-13.9 358.4,-13.9 347.6,5 358.4,23.8 380.1,23.8 391,5 	"/>
	
		<linearGradient id="SVGID_68_" gradientUnits="userSpaceOnUse" x1="9014.6895" y1="5020.5059" x2="8975.1211" y2="5061.1089" gradientTransform="matrix(6.123234e-17 -1 1 6.123234e-17 -4676.2578 9032.9697)">
		<stop  offset="0" style="stop-color:#404040"/>
		<stop  offset="4.824975e-02" style="stop-color:#5E5E5E"/>
		<stop  offset="0.1144" style="stop-color:#808080"/>
		<stop  offset="0.1879" style="stop-color:#9D9D9D"/>
		<stop  offset="0.2689" style="stop-color:#B5B5B5"/>
		<stop  offset="0.3606" style="stop-color:#C8C8C8"/>
		<stop  offset="0.4695" style="stop-color:#D4D4D4"/>
		<stop  offset="0.612" style="stop-color:#DCDCDC"/>
		<stop  offset="0.9165" style="stop-color:#DEDEDE"/>
	</linearGradient>
	<polygon class="st69" points="380.1,23.8 358.4,23.8 347.6,42.7 358.4,61.5 380.1,61.5 391,42.7 	"/>
	
		<linearGradient id="SVGID_69_" gradientUnits="userSpaceOnUse" x1="8953.9648" y1="5016.2212" x2="8951.5557" y2="5068.8887" gradientTransform="matrix(6.123234e-17 -1 1 6.123234e-17 -4676.2578 9032.9697)">
		<stop  offset="0" style="stop-color:#404040"/>
		<stop  offset="2.450494e-02" style="stop-color:#575757"/>
		<stop  offset="7.038973e-02" style="stop-color:#7B7B7B"/>
		<stop  offset="0.1221" style="stop-color:#9B9B9B"/>
		<stop  offset="0.1792" style="stop-color:#B7B7B7"/>
		<stop  offset="0.2437" style="stop-color:#CDCDCD"/>
		<stop  offset="0.319" style="stop-color:#DEDEDE"/>
		<stop  offset="0.4122" style="stop-color:#E9E9E9"/>
		<stop  offset="0.5428" style="stop-color:#F0F0F0"/>
		<stop  offset="0.9056" style="stop-color:#F2F2F2"/>
	</linearGradient>
	<polygon class="st70" points="380.1,61.5 358.4,61.5 347.6,80.3 358.4,99.2 380.1,99.2 391,80.3 	"/>
	
		<linearGradient id="SVGID_70_" gradientUnits="userSpaceOnUse" x1="8991.6445" y1="4994.5034" x2="8989.2354" y2="5047.1709" gradientTransform="matrix(6.123234e-17 -1 1 6.123234e-17 -4676.2578 9032.9697)">
		<stop  offset="0" style="stop-color:#404040"/>
		<stop  offset="2.450494e-02" style="stop-color:#575757"/>
		<stop  offset="7.038973e-02" style="stop-color:#7B7B7B"/>
		<stop  offset="0.1221" style="stop-color:#9B9B9B"/>
		<stop  offset="0.1792" style="stop-color:#B7B7B7"/>
		<stop  offset="0.2437" style="stop-color:#CDCDCD"/>
		<stop  offset="0.319" style="stop-color:#DEDEDE"/>
		<stop  offset="0.4122" style="stop-color:#E9E9E9"/>
		<stop  offset="0.5428" style="stop-color:#F0F0F0"/>
		<stop  offset="0.9056" style="stop-color:#F2F2F2"/>
	</linearGradient>
	<polygon class="st71" points="358.4,23.8 336.7,23.8 325.8,42.7 336.7,61.5 358.4,61.5 369.3,42.7 	"/>
	
		<linearGradient id="SVGID_71_" gradientUnits="userSpaceOnUse" x1="9029.3232" y1="4994.5034" x2="9026.9141" y2="5047.1709" gradientTransform="matrix(6.123234e-17 -1 1 6.123234e-17 -4676.2578 9032.9697)">
		<stop  offset="0" style="stop-color:#404040"/>
		<stop  offset="2.450494e-02" style="stop-color:#575757"/>
		<stop  offset="7.038973e-02" style="stop-color:#7B7B7B"/>
		<stop  offset="0.1221" style="stop-color:#9B9B9B"/>
		<stop  offset="0.1792" style="stop-color:#B7B7B7"/>
		<stop  offset="0.2437" style="stop-color:#CDCDCD"/>
		<stop  offset="0.319" style="stop-color:#DEDEDE"/>
		<stop  offset="0.4122" style="stop-color:#E9E9E9"/>
		<stop  offset="0.5428" style="stop-color:#F0F0F0"/>
		<stop  offset="0.9056" style="stop-color:#F2F2F2"/>
	</linearGradient>
	<polygon class="st72" points="358.4,-13.9 336.7,-13.9 325.8,5 336.7,23.8 358.4,23.8 369.3,5 	"/>
	
		<linearGradient id="SVGID_72_" gradientUnits="userSpaceOnUse" x1="8977.0107" y1="4998.7881" x2="8937.4414" y2="5039.3911" gradientTransform="matrix(6.123234e-17 -1 1 6.123234e-17 -4676.2578 9032.9697)">
		<stop  offset="0" style="stop-color:#404040"/>
		<stop  offset="4.824975e-02" style="stop-color:#5E5E5E"/>
		<stop  offset="0.1144" style="stop-color:#808080"/>
		<stop  offset="0.1879" style="stop-color:#9D9D9D"/>
		<stop  offset="0.2689" style="stop-color:#B5B5B5"/>
		<stop  offset="0.3606" style="stop-color:#C8C8C8"/>
		<stop  offset="0.4695" style="stop-color:#D4D4D4"/>
		<stop  offset="0.612" style="stop-color:#DCDCDC"/>
		<stop  offset="0.9165" style="stop-color:#DEDEDE"/>
	</linearGradient>
	<polygon class="st73" points="358.4,61.5 336.7,61.5 325.8,80.3 336.7,99.2 358.4,99.2 369.3,80.3 	"/>
</g>
</svg>
