<?xml version="1.0" encoding="utf-8"?>
<!-- Generator: Adobe Illustrator 25.3.0, SVG Export Plug-In . SVG Version: 6.00 Build 0)  -->
<svg version="1.1" id="Layer_1" xmlns="http://www.w3.org/2000/svg" xmlns:xlink="http://www.w3.org/1999/xlink" x="0px" y="0px"
	 viewBox="0 0 40 40" style="enable-background:new 0 0 40 40;" xml:space="preserve">
<style type="text/css">
	.st0{fill:#1C1C1C;}
	.st1{fill:#FFFFFF;}
</style>
<g>
	<g>
		<path class="st0" d="M3.9,39.9c-0.6-0.2-1.2-0.3-1.7-0.6c-1.4-0.8-2.2-2.1-2.2-3.7c0-1.4,0-2.7,0-4.1c0-8.9,0-17.8,0-26.7
			c0-2.2,1.4-4,3.5-4.5c0.4-0.1,0.8-0.1,1.2-0.1c5.1,0,10.2,0,15.3,0c2.7,0,4.6,1.9,4.6,4.6c0,10.2,0,20.3,0,30.5
			c0,2.6-1.9,4.4-3.8,4.6c0,0-0.1,0-0.1,0.1C15.1,39.9,9.5,39.9,3.9,39.9z M22.3,30.8c0-0.2,0-0.3,0-0.4c0-8.5,0-17.1,0-25.6
			c0-1.5-0.9-2.4-2.4-2.4c-5.1,0-10.1,0-15.2,0c-1.5,0-2.4,0.9-2.4,2.3c0,8.5,0,17.1,0,25.6c0,0.1,0,0.3,0,0.4
			C9,30.8,15.6,30.8,22.3,30.8z M2.3,33.2c0,0.8,0,1.5,0,2.3c0,1.2,0.9,2.1,2.1,2.1c5.2,0,10.5,0,15.7,0c1.1,0,2-0.8,2.1-1.8
			c0.1-0.8,0-1.7,0-2.6C15.6,33.2,9,33.2,2.3,33.2z"/>
	</g>
	<g>
		<path class="st0" d="M11.1,35.4c0-0.7,0.5-1.2,1.2-1.2c0.7,0,1.2,0.5,1.2,1.3c0,0.7-0.5,1.2-1.2,1.2
			C11.6,36.6,11.1,36.1,11.1,35.4z"/>
	</g>
</g>
<g>
	<path class="st0" d="M22,7.2H2.3c-0.6,0-1.1-0.5-1.1-1.1v0C1.2,5.5,1.7,5,2.3,5H22c0.6,0,1.1,0.5,1.1,1.1v0
		C23.1,6.7,22.6,7.2,22,7.2z"/>
</g>
<path class="st0" d="M39.7,18c-1.1-5.4-4.4-8.9-9.8-10.5c-1.3-0.4-2.5-0.5-3.7-0.4c-0.2-0.1-0.4,0-0.5,0c0,0,0,0,0,0l0,0
	c-0.4,0-0.7,0.1-1.1,0.1c-3.2,0.6-5.9,2-7.9,4.4c-2.9,3.4-3.9,7.3-3,11.6c0.6,3,2.2,5.5,4.7,7.5c1.7,1.3,3.6,2.2,5.8,2.7l0,0.4
	c0,0.1,0,0.2,0,0.3c0,0.2,0,0.4,0,0.6c0,0.8,0.5,1.5,1.3,1.7l0,0.5c0,0.2,0,0.4,0,0.6c0,0.5,0,1,0,1.5c0,0.4,0.1,0.7,0.4,0.8L26,40
	l1.8,0l0.1-0.1c0.3-0.2,0.4-0.5,0.4-0.8c0-0.5,0-1,0-1.5c0-0.2,0-0.3,0-0.5c0-0.2,0.1-0.4,0-0.6c0.6-0.2,1-0.6,1.2-1.3
	c0.1-0.3,0.1-0.7,0.1-1c0-0.1,0-0.2,0-0.3l0-0.5c2.8-0.6,5.1-2,6.9-4C39.5,26.1,40.6,22.3,39.7,18z M26.5,30.8L26.5,30.8L26.5,30.8
	c-1.6,0-3.2-0.4-4.7-1.2c-2.1-1.1-3.6-2.8-4.6-4.9c-0.5-1.1-0.8-2.2-0.9-3.4c-0.2-2.7,0.5-5.2,2.2-7.3c1.6-2,3.7-3.3,6.2-3.8
	c0.6-0.1,1.2-0.2,1.7-0.2l0,0l0,0c2.2-0.1,4.3,0.6,6.1,1.8c2.3,1.6,3.7,3.7,4.3,6.3c0.7,3.2,0,6.2-2,8.7c-1.6,2-3.7,3.3-6.4,3.8
	C27.7,30.8,27.1,30.9,26.5,30.8z"/>
<g>
	<circle class="st0" cx="27.1" cy="20.4" r="11"/>
</g>
<g>
	<path class="st1" d="M27.5,22.2C26.9,22,26.3,22,25.8,22c-0.8-0.1-1.7-0.2-2.5-0.2c0-0.1-0.1-0.1-0.2-0.2c-0.8-0.5-1-1.5-0.5-2.3
		c1.4-2.2,2.8-4.4,4.2-6.6c0.4,0.3,0.6,0.8,0.4,1.3c-0.4,1.1-0.9,2.2-1.3,3.3c-0.1,0.2-0.2,0.5-0.3,0.7c-0.1,0.4-0.1,0.5,0.3,0.6
		c0.8,0.1,1.6,0.2,2.4,0.2c0.7,0.1,1.4,0.1,2.2,0.2c1,0.1,1.7,1.4,1.1,2.4c-0.9,1.5-1.7,3-2.6,4.5c-0.5,0.8-0.9,1.6-1.4,2.4
		c-0.3,0.5-0.7,0.7-1.2,0.5c0.3-0.9,0.7-1.9,1-2.8c0.4-1.1,0.8-2.1,1.2-3.2c0.1-0.3,0-0.6-0.3-0.6C28.1,22.2,27.8,22.1,27.5,22.2z"
		/>
</g>
</svg>
