<?xml version="1.0" encoding="utf-8"?>
<!-- Generator: Adobe Illustrator 25.3.0, SVG Export Plug-In . SVG Version: 6.00 Build 0)  -->
<svg version="1.1" id="Layer_1" xmlns="http://www.w3.org/2000/svg" xmlns:xlink="http://www.w3.org/1999/xlink" x="0px" y="0px"
	 viewBox="0 0 48 48" style="enable-background:new 0 0 48 48;" xml:space="preserve">
<style type="text/css">
	.st0{fill:#0D6A9B;}
</style>
<path class="st0" d="M0,48c0-1.1,0-2.3,0-3.4c1.7,0,3.4,0,5.1,0c0-0.3,0-0.5,0-0.7c0-13.5,0-27,0-40.5c0-1.9,1.1-3.3,2.9-3.6
	c0.3,0,0.5-0.1,0.8-0.1c5,0,10,0,15,0c2.3,0,3.7,1.4,3.7,3.7c0,6,0,12,0,18c0,0.2,0,0.4,0,0.7c0.2,0,0.4,0,0.6,0c1.5,0,3,0,4.5,0
	c2,0,3.5,1.5,3.5,3.5c0,3.4,0,6.8,0,10.2c0,1.3,1.2,2.2,2.4,1.7c0.7-0.3,1.1-0.9,1.1-1.7c0-1.1,0-2.3,0-3.4c0-6.1,0-12.2,0-18.3
	c0-0.2,0-0.4,0-0.7c-1.3-0.1-2.5-0.5-3.5-1.4c-1.1-1-1.6-2.3-1.7-3.7c0-0.8,0-1.6,0-2.4c0-0.9,0.3-1.1,1.2-1.2c0.2,0,0.3,0,0.6,0
	c0-0.7,0-1.5,0-2.2c0-0.4,0-0.8,0-1.2c0-1,0.8-1.7,1.7-1.7c1,0,1.7,0.7,1.7,1.7c0,1.1,0,2.2,0,3.4c1.1,0,2.3,0,3.4,0
	c0-1.1,0-2.2,0-3.3c0-0.7,0.2-1.2,0.8-1.5c0.5-0.3,1.1-0.4,1.7-0.1c0.6,0.3,0.9,0.8,0.9,1.5c0,1.1,0,2.3,0,3.5c0.3,0,0.6,0,0.9,0
	c0.5,0,0.8,0.3,0.8,0.8c0,1.1,0.1,2.3-0.1,3.4c-0.4,2.5-2.3,4.2-4.8,4.4c-0.1,0-0.2,0-0.3,0c0,0.2,0,0.4,0,0.6c0,7.1,0,14.3,0,21.4
	c0,2.3-1,4.1-3.1,5.1c-3.3,1.5-7.2-1-7.2-4.6c0-3.3,0-6.5,0-9.8c0-0.2,0-0.4,0-0.6c-1.7,0-3.4,0-5.1,0c0,6.3,0,12.6,0,18.9
	c6.9,0,13.7,0,20.6,0c0,1.2,0,2.3,0,3.4C32.1,48,16.1,48,0,48z M8.6,11.8c5.2,0,10.3,0,15.4,0c0-2.3,0-4.6,0-6.8
	C18.9,5,13.7,5,8.6,5C8.6,7.2,8.6,9.5,8.6,11.8z M15.5,32.5c-0.6,2.1-1.1,4.2-1.6,6.3c0,0.2,0.1,0.4,0.1,0.6
	c0.2-0.1,0.4-0.1,0.5-0.3c2.5-3,5.1-6,7.6-9c0.1-0.2,0.3-0.5,0.2-0.7c-0.1-0.2-0.4-0.3-0.7-0.3c-1.3,0-2.6,0-3.9,0
	c-0.2,0-0.3,0-0.5,0c0.5-2.1,1.1-4.1,1.6-6.2c0-0.2-0.1-0.4-0.1-0.6c-0.2,0.1-0.4,0.1-0.6,0.3c-2.5,3-5,6-7.5,9
	c-0.2,0.2-0.3,0.5-0.2,0.7c0.1,0.2,0.5,0.3,0.7,0.3C12.5,32.5,13.9,32.5,15.5,32.5z"/>
</svg>
