<?xml version="1.0" encoding="utf-8"?>
<!-- Generator: Adobe Illustrator 25.3.0, SVG Export Plug-In . SVG Version: 6.00 Build 0)  -->
<svg version="1.1" id="Layer_1" xmlns="http://www.w3.org/2000/svg" xmlns:xlink="http://www.w3.org/1999/xlink" x="0px" y="0px"
	 viewBox="0 0 40 40" style="enable-background:new 0 0 40 40;" xml:space="preserve">
<style type="text/css">
	.st0{fill:#2F8F1B;}
</style>
<g>
	<path class="st0" d="M5.5,28.1c0-2.8,0-5.5,0-8.3c0-0.8,0.3-1.4,1-1.9c4.2-2.9,8.3-5.8,12.4-8.8c0.8-0.6,1.5-0.6,2.3,0
		c4.2,3,8.3,5.9,12.5,8.9c0.7,0.5,1,1.1,1,1.9c0,5.5,0,11,0,16.5c0,0.2,0,0.3,0,0.5c-0.1,0.8-0.5,1.3-1.4,1.3c-3.2,0-6.3,0-9.5,0
		c-0.9,0-1.4-0.6-1.4-1.6c0-2.7,0-5.4,0-8.1c0-0.3,0-0.5-0.1-0.8c-0.3-1.3-1.4-2.1-2.8-2c-1.2,0.1-2.2,1.2-2.2,2.5
		c0,2.7,0,5.4,0,8.1c0,0.3,0,0.6,0,0.9c-0.1,0.7-0.4,1-1.1,1.1c-0.2,0-0.4,0-0.7,0c-2.8,0-5.6,0-8.4,0c-1.2,0-1.7-0.5-1.7-1.7
		C5.5,33.8,5.5,31,5.5,28.1z M14.5,35.5c0-0.2,0-0.4,0-0.5c0-2.2,0-4.4,0-6.5c0-2.5,1.6-4.5,3.9-5.2c3.4-1,6.9,1.5,6.9,5.1
		c0,2.2,0,4.5,0,6.7c0,0.2,0,0.3,0,0.5c2.2,0,4.3,0,6.4,0c0-0.1,0-0.3,0-0.4c0-4.9,0-9.8,0-14.7c0-0.3-0.1-0.4-0.3-0.6
		c-3.7-2.6-7.4-5.2-11-7.8c-0.2-0.2-0.4-0.2-0.6,0c-3.7,2.6-7.3,5.2-11,7.8c-0.3,0.2-0.4,0.4-0.4,0.7c0,4.8,0,9.7,0,14.5
		c0,0.2,0,0.3,0,0.5C10.4,35.5,12.4,35.5,14.5,35.5z"/>
	<path class="st0" d="M8.6,9.1c2.7-1.8,5.3-3.6,8-5.4c0.9-0.6,1.7-1.2,2.6-1.8c0.6-0.4,1.2-0.4,1.9,0c6.1,4.2,12.1,8.4,18.2,12.6
		c0.7,0.5,0.9,1.3,0.5,1.9c-0.5,0.8-1.3,0.9-2.2,0.4C32.3,13.1,27,9.4,21.7,5.7c-0.4-0.3-0.8-0.5-1.2-0.8c-0.3-0.2-0.5-0.2-0.8,0
		C16.3,7.3,12.8,9.7,9.4,12c-2.3,1.6-4.6,3.2-7,4.8c-0.5,0.4-1.1,0.5-1.6,0.2C0.2,16.8,0,16.2,0,15.7c0-0.5,0.3-0.8,0.7-1.1
		c1.5-1.1,3.1-2.2,4.6-3.2c0.3-0.2,0.5-0.5,0.5-0.9c0-1.4,0-2.7,0-4.1c0-1.1,0.9-1.7,2-1.4c0.5,0.2,0.9,0.7,0.9,1.3
		c0,0.8,0,1.7,0,2.5C8.6,8.8,8.6,8.9,8.6,9.1z"/>
</g>
</svg>
