<?xml version="1.0" encoding="utf-8"?>
<!-- Generator: Adobe Illustrator 25.3.0, SVG Export Plug-In . SVG Version: 6.00 Build 0)  -->
<svg version="1.1" id="Layer_1" xmlns="http://www.w3.org/2000/svg" xmlns:xlink="http://www.w3.org/1999/xlink" x="0px" y="0px"
	 viewBox="0 0 19.1 31.5" style="enable-background:new 0 0 19.1 31.5;" xml:space="preserve">
<style type="text/css">
	.st0{fill:#2F8F1B;}
	.st1{fill:#2F8F1B;stroke:#2F8F1B;stroke-width:1.5;stroke-miterlimit:10;}
	.st2{fill:#848484;}
	.st3{fill:#848484;stroke:#848484;stroke-width:1.5;stroke-miterlimit:10;}
</style>
<g>
	<path class="st0" d="M19,9.3c0-0.7,0-1.4,0-2.1c0-0.4-0.1-0.8-0.4-1.1c-0.3-0.3-0.7-0.5-1.2-0.5c-0.2,0-0.3,0-0.5,0
		c-0.4,0-0.8,0-1.2,0l-12.3,0c-0.4,0-0.7,0-1.1,0c-0.1,0-0.3,0-0.4,0C0.6,5.6,0,6.2,0,7.5c0,0.9,0,1.7,0,2.6c0,0.7,0,1.5,0,2.2
		c0,0.6,0,1.2,0.1,1.9c0.8,4.2,3.6,7.1,7.7,7.9c0,1.1,0,2.1,0,3c0,1.3,0,2.4,0,3.9c0,1.2,0.2,1.9,0.8,2.4l0.1,0.1l0.1,0
		c0.2,0.1,0.4,0.1,0.6,0.1c0.3,0,0.6-0.1,0.9-0.3c0.9-0.6,0.8-2,0.8-2.5c0-2.2,0-4.5,0-6.8c4-0.8,6.8-3.5,7.6-7.3
		C19.1,12.9,19.1,11,19,9.3z M12.7,13.4c-1,1.7-1.9,3.3-2.9,5c-0.2,0.3-0.5,0.5-0.8,0.5c-0.2,0-0.3,0-0.5-0.1
		c-0.2-0.1-0.4-0.3-0.4-0.5c-0.1-0.3,0-0.5,0.1-0.8l2.1-3.6l-3.1,0c-0.6,0-0.9-0.2-1-0.5c-0.1-0.2-0.2-0.6,0.1-1.1l2.3-4.2
		C8.8,7.9,9,7.5,9.6,7.5c0.4,0,0.6,0.2,0.8,0.4c0.2,0.3,0.2,0.7,0,1C10.2,9.3,10,9.7,9.8,10L8.7,12l2.7,0c0.2,0,0.4,0,0.5,0
		c0.4,0,0.7,0.2,0.9,0.5C12.9,12.7,12.9,13.1,12.7,13.4z"/>
	<g>
		<path class="st1" d="M17.1,6.8c-0.5,0-1.1,0-1.6,0c-0.3,0-0.4-0.1-0.4-0.4c0-1.6,0-3.2,0-4.8c0-0.5-0.2-0.8-0.6-0.9
			C14,0.7,13.7,1,13.7,1.6c0,1.6,0,3.2,0,4.8c0,0.3,0,0.4-0.4,0.4c-2.6,0-5.1,0-7.7,0c-0.4,0-0.4-0.1-0.4-0.5c0-1.5,0-3.1,0-4.6
			c0-0.6-0.2-1-0.7-1c-0.5,0-0.7,0.3-0.7,1c0,1.6,0,3.1,0,4.7c0,0.3-0.1,0.4-0.4,0.4c-0.5,0-0.9,0-1.4,0"/>
	</g>
</g>
<path class="st2" d="M19,9.3c0-0.7,0-1.4,0-2.1c0-0.4-0.1-0.8-0.4-1.1c-0.3-0.3-0.7-0.5-1.2-0.5c-0.2,0-0.3,0-0.5,0
	c-0.4,0-0.8,0-1.2,0l-12.3,0c-0.4,0-0.7,0-1.1,0c-0.1,0-0.3,0-0.4,0C0.6,5.6,0,6.2,0,7.5c0,0.9,0,1.7,0,2.6c0,0.7,0,1.5,0,2.2
	c0,0.6,0,1.2,0.1,1.9c0.8,4.2,3.6,7.1,7.7,7.9c0,1.1,0,2.1,0,3c0,1.3,0,2.4,0,3.9c0,1.2,0.2,1.9,0.8,2.4l0.1,0.1l0.1,0
	c0.2,0.1,0.4,0.1,0.6,0.1c0.3,0,0.6-0.1,0.9-0.3c0.9-0.6,0.8-2,0.8-2.5c0-2.2,0-4.5,0-6.8c4-0.8,6.8-3.5,7.6-7.3
	C19.1,12.9,19.1,11,19,9.3z M12.7,13.4c-1,1.7-1.9,3.3-2.9,5c-0.2,0.3-0.5,0.5-0.8,0.5c-0.2,0-0.3,0-0.5-0.1
	c-0.2-0.1-0.4-0.3-0.4-0.5c-0.1-0.3,0-0.5,0.1-0.8l2.1-3.6l-3.1,0c-0.6,0-0.9-0.2-1-0.5c-0.1-0.2-0.2-0.6,0.1-1.1l2.3-4.2
	C8.8,7.9,9,7.5,9.6,7.5c0.4,0,0.6,0.2,0.8,0.4c0.2,0.3,0.2,0.7,0,1C10.2,9.3,10,9.7,9.8,10L8.7,12l2.7,0c0.2,0,0.4,0,0.5,0
	c0.4,0,0.7,0.2,0.9,0.5C12.9,12.7,12.9,13.1,12.7,13.4z"/>
<g>
	<path class="st3" d="M17.1,6.8c-0.5,0-1.1,0-1.6,0c-0.3,0-0.4-0.1-0.4-0.4c0-1.6,0-3.2,0-4.8c0-0.5-0.2-0.8-0.6-0.9
		C14,0.7,13.7,1,13.7,1.6c0,1.6,0,3.2,0,4.8c0,0.3,0,0.4-0.4,0.4c-2.6,0-5.1,0-7.7,0c-0.4,0-0.4-0.1-0.4-0.5c0-1.5,0-3.1,0-4.6
		c0-0.6-0.2-1-0.7-1c-0.5,0-0.7,0.3-0.7,1c0,1.6,0,3.1,0,4.7c0,0.3-0.1,0.4-0.4,0.4c-0.5,0-0.9,0-1.4,0"/>
</g>
</svg>
